uid,ICSD_id,COD_id,monolayer_doi
ZnBr2-CdI2-NM,,9011540,
MgCl2-CdI2-NM,86439,9009129,
HfSe2-CdI2-NM,182678,,
ZnCl2-CdI2-NM,,9009136,
MoS2-CdI2-NM,26622,,10.1038/nmat4080
TiBr2-CdI2-FM,26078,,
BN-BN-NM,186248,1010602,10.1038/nmat2711
PbI2-CdI2-NM,60327,9009140,
H2Si2-CH-NM,41478,,
Hf2Br2N2-FeOCl-NM,250913,1532008,
Fe2Se2-FeSe-AFM,290411,1010298,10.1103/PhysRevB.84.020503
Cr2Br2S2-FeOCl-AFM,69659,,
Cr2Br2S2-FeOCl-FM,69659,,
Fe2S2-FeSe-NM,633338,9011800,
VSe2-CdI2-FM,86520,,
VSe2-CdI2-NM,86520,,10.1039/C6CC03854A
HfS2-CdI2-NM,638847,,10.1002/adma.201503864
TiTe2-CdI2-NM,80092,1008063,
In2Br2O2-FeOCl-NM,24059,,
ZrS2-CdI2-NM,,5910006,10.1021/jacs.5b03807
VI2-CdI2-FM,246907,,
V2I4-CdI2-AFM,246907,,
VBr2-CdI2-FM,246906,,
V2Br4-CdI2-AFM,246906,,
Zr2I2N2-FeOCl-NM,36119,,
VS2-CdI2-FM,68713,,
VS2-CdI2-NM,68713,,10.1021/ja207176c
Zr2I4-WTe2-NM,24807,,
GeI2-CdI2-NM,23176,9009105,
VTe2-CdI2-FM,603582,,
CdI2-CdI2-NM,49573,8103505,
SnSe2-CdI2-NM,43857,,
CoCl2-CdI2-FM,,9009126,
MnI2-CdI2-FM,,9009110,
Mn2I4-CdI2-AFM,,9009110,
PtSe2-CdI2-NM,41389,9009117,10.1021/acs.nanolett.5b00964
WTe2-MoS2-NM,653170,,10.1038/nmat4080
TaS2-CdI2-NM,52117,9011539,10.1021/acs.chemmater.6b02334
Fe2Te2-FeSe-FM,169974,,
CrSe2-CdI2-FM,626718,9012110,
CrSe2-CdI2-NM,626718,9012110,
MoSe2-MoS2-NM,49800,1528933,10.1364/OE.21.004908
Ti2I2N2-FeOCl-NM,27394,,
Ti2Br2N2-FeOCl-NM,27395,,
V2Br2O2-FeOCl-AFM,27010,,
V2Br2O2-FeOCl-FM,27010,,
WSe2-MoS2-NM,84182,9012193,10.1364/OE.21.004908
WS2-MoS2-NM,202367,9009145,10.1021/nn503093k
Cr2Br2O2-FeOCl-AFM,27092,,
Cr2Br2O2-FeOCl-FM,27092,,
CoBr2-CdI2-FM,,9016149,
Co2Br4-CdI2-FM,,9016149,
Al2Cl2O2-FeOCl-NM,,9009194,
Ga2Te2-GaS-NM,43328,,10.1088/2053-1583/2/3/035010
PtS2-CdI2-NM,41388,5910085,10.1002/adma.201504572
CoI2-CdI2-FM,,9009100,
Co2I4-CdI2-AFM,,9009100,
FeBr2-CdI2-NM,409571,9009102,
FeI2-CdI2-NM,,9009103,
MgBr2-CdI2-NM,,9009107,
MgI2-CdI2-NM,281551,9009108,
TiS2-CdI2-NM,60015,1010275,10.1038/nmat4251
TiSe2-CdI2-NM,31343,1010276,
Ti2Br2O2-FeOCl-NM,,1523160,
NbS2-CdI2-NM,24755,7204814,
Ti2Cl2O2-FeOCl-NM,155833,,
ReSe2-MoS2-NM,650091,,
Ge2S2-SnS-NM,,9008784,
NbTe2-CdI2-NM,645529,,
PtO2-CdI2-NM,76431,,
V2Cl2O2-FeOCl-AFM,,2106692,
NiBr2-CdI2-FM,,9008013,
Ni2Br4-CdI2-AFM,,9008013,
VCl2-CdI2-FM,,1528165,
V2Cl4-CdI2-AFM,,1528165,
Ga2S2-GaS-NM,635254,9008966,
ZnI2-CdI2-NM,,9009122,
FeCl2-CdI2-NM,4059,9015767,
MnCl2-CdI2-FM,33752,9009130,
Mn2Cl4-CdI2-AFM,33752,9009130,
Mn2Cl4-CdI2-FM,33752,9009130,
NiI2-CdI2-FM,,9009133,
Ni2I4-CdI2-AFM,,9009133,
NiCl2-CdI2-FM,,9009132,
C2-C-NM,96620,9011577,10.1126/science.1102896
Sn2Te2-FeSe-NM,652743,,
ZrTe2-CdI2-NM,653213,,
Fe2Cl2O2-FeOCl-AFM,40963,1010645,
Fe2Cl2O2-FeOCl-FM,40963,1010645,
Ge2Se2-SnS-NM,17006,1528768,
Cr2Cl2O2-FeOCl-AFM,4086,,
Cr2Cl2O2-FeOCl-FM,4086,,
P4-P-NM,36434,9012486,10.1038/nnano.2014.35
Zr2Br2N2-FeOCl-NM,27393,,
ZrSe2-CdI2-NM,,5910026,10.3390/app6090264
Sc2Br2O2-FeOCl-NM,,2206575,
In2Se2-GaS-NM,640503,2106552,
TiCl2-CdI2-NM,,9009121,
CdBr2-CdI2-NM,,9009124,
CdCl2-CdI2-NM,86440,9009125,
PbTe-GeSe-NM,42708,,
W2Te4-WTe2-NM,14348,2310355,
Mo2Te4-WTe2-NM,14349,2310356,
NbSe2-CdI2-NM,645379,,
Ti2Cl2N2-FeOCl-NM,261525,,
SnS2-CdI2-NM,23448,9009120,
CoO2-CdI2-FM,157859,1522027,
Co2O4-CdI2-AFM,157859,1522027,
NiO2-CdI2-NM,78698,9016308,
HfTe2-CdI2-NM,603713,,
CaI2-CdI2-NM,,9009097,
TaSe2-CdI2-NM,24318,1521538,10.1021/acs.nanolett.7b03264
TaSe2-MoS2-NM,18130,1521538,
MnBr2-CdI2-FM,67500,9009109,
Mn2Br4-CdI2-AFM,67500,9009109,
MoS2-MoS2-NM,38401,,10.1103/PhysRevLett.105.136805
Ti2Cl6-BiI3-FM,39426,,
Zr2S6-TiS3-NM,42073,,
Zr2Se6-TiS3-NM,25626,,
Zr2Te6-TiS3-NM,86764,,
Ge2-C-NM,192507,,10.1088/1367-2630/16/9/095002
In2Cl2O2-FeOCl-NM,24058,,
Ga2Se2-GaS-NM,2002,,
Ir2Br6-BiI3-NM,14212,,
Y2I6-BiI3-NM,170773,,
Sc2Cl6-BiI3-NM,74517,,
Sc2C-CdI2-NM,280743,,
Rh2Br6-BiI3-NM,28245,,
NbSe2-MoS2-NM,237740,,10.1038/nnano.2015.143
MoTe2-MoS2-NM,15431,,10.1038/nature24043
In2Br6-BiI3-NM,65198,,
Hf2S6-TiS3-NM,42074,,
Fe2Te2-FeSe-AFM,180602,,
Fe2Cl6-BiI3-FM,63329,,
Cr2I6-BiI3-AFM,251654,,
Cr2I6-BiI3-FM,251654,,10.1038/nature22391
Cr2Cl6-BiI3-AFM,22081,,
Cr2Cl6-BiI3-FM,22081,,
Al2Cl6-BiI3-NM,39566,,
Cr2Br4-CrCl2-AFM,23903,,
Cr2Br4-CrCl2-FM,23903,,
Si2-C,,,10.1088/1367-2630/16/9/095004
C6N2-C3N,,,10.1002/adma.201605625
MoSSe-MoSSe,,,10.1038/nnano.2017.100
Mo2Te4-WTe2,,,10.1021/acs.nanolett.6b01342
W2Te4-WTe2,,,10.1038/nphys4091
SnS2-MoS2,,,10.1039/C6TA08327G
NbS2-MoS2,,,10.1039/C7NR05572B
Re4S8-ReTe2,,,10.1038/ncomms4252
In2Se2-PbSe,,,10.1088/2053-1583/aab390
Ga2Se2-PbSe,,,10.1021/nn405529r
GaN-BN,,,10.1038/nmat4742
Ti2S6-TiS3,,,10.1002/adom.201400043
Hf2Te6-TiS3,,,10.1002/aelm.201600324
TiO2-CdI2,,,10.1038/ncomms4813
Bi2I6-BiI3,,,10.1002/smll.201701034
Nb2CO2-Ti2CO2,,,10.1002/adma.201500604
V2CO2-Ti2CO2,,,10.1149/2.0641704jes
Ti3C2H2O2-Ti3C2H2O2,,,10.1126/science.1241488
Ti2CO2-Ti2CO2,,,10.1149/2.0401803jes
Mo2CO2-Ti2CO2,,,10.1002/adfm.201505328
NiSe2-CdI2,,,10.1063/1.4991065
Pb2C16Cl8H48N4-PbA2I4,,,10.1126/science.aac7660
Pb2Br4C16Cl4H48N4-PbA2I4,,,10.1126/science.aac7660
Pb2Br8C16H48N4-PbA2I4,,,10.1126/science.aac7660
Pb2Br4C16H48I4N4-PbA2I4,,,10.1126/science.aac7660
Pb2C16H48I8N4-PbA2I4,,,10.1126/science.aac7660
Sn2C16H48I8N4-PbA2I4,,,10.1021/cm9505097
C16Ge2H48I8N4-PbA2I4,,,10.1021/cm9505097
