{"1": {
 "calculator": "aims",
 "cell": [[4.00759, 0.0, 0.0], [-2.0037949999999993, 3.470674747952479, 0.0], [3e-16, 5e-16, 5.00307]],
 "ctime": 18.50349417319133,
 "energy": -63.5295947839973,
 "free_energy": -63.5295947839973,
 "initial_magmoms": [0.0, 0.0, 0.0, 0.0],
 "key_value_pairs": {"element": "H", "energy2": -63.5243094472388, "ns": 1},
 "mtime": 19.12496202685363,
 "numbers": [1, 1, 1, 1],
 "pbc": [true, true, true],
 "positions": [[-2.00379499994e-05, 2.313794734217479, 0.8754371886], [2.003815037950001, 1.1568800137350004, 4.1276328114], [2.0038150379500004, 1.1568800137350004, 3.3769721886000004], [-2.00379499994e-05, 2.313794734217479, 1.6260978114]],
 "unique_id": "1ec70b1775a42840b8e78b5542bd9a4c",
 "user": "jensj"},
"2": {
 "calculator": "aims",
 "cell": [[4.0831, 0.0, 0.0], [3e-16, 4.0831, 0.0], [3e-16, 3e-16, 4.0831]],
 "ctime": 18.50349419954708,
 "energy": -885.533065665621,
 "free_energy": -885.533065659623,
 "key_value_pairs": {"element": "H", "energy2": -885.479552283728, "ns": 2},
 "mtime": 19.12496202710383,
 "numbers": [1, 1, 1, 1, 3, 3, 3, 3],
 "pbc": [true, true, true],
 "positions": [[2.04155, 2.04155, 2.04155], [2.04155, 0.0, 0.0], [1e-16, 2.04155, 0.0], [1e-16, 1e-16, 2.04155], [0.0, 0.0, 0.0], [3e-16, 2.04155, 2.04155], [2.04155, 1e-16, 2.04155], [2.04155, 2.04155, 0.0]],
 "unique_id": "9890a13b59ec52e9710ec20a1c755bb4",
 "user": "jensj"},
"3": {
 "calculator": "aims",
 "cell": [[2.92661, 0.0, 0.0], [1.4633050000000003, 2.5345186069695758, 0.0], [3e-16, 2e-16, 4.77913]],
 "ctime": 18.50349417369695,
 "energy": -157.470394125798,
 "free_energy": -157.470394125798,
 "initial_magmoms": [0.0, 0.0],
 "key_value_pairs": {"element": "He", "energy2": -157.470335098996, "ns": 1},
 "mtime": 19.124962027416803,
 "numbers": [2, 2],
 "pbc": [true, true, true],
 "positions": [[0.0, 0.0, 0.0], [1.4632903669500006, 0.8448310872611688, 2.389565]],
 "unique_id": "72120de6da88c8d5405b60b772b4cd3c",
 "user": "jensj"},
"4": {
 "calculator": "aims",
 "cell": [[3.07510038745206, 0.0, 0.0], [1.5375501937260296, 2.6631150547208544, 0.0], [1.5375501937260303, 0.887705018240285, 7.430890283402391]],
 "ctime": 18.503494177941246,
 "energy": -614.025183428267,
 "initial_magmoms": [0.0, 0.0, 0.0],
 "key_value_pairs": {"element": "Li", "energy2": -614.01843341511, "ns": 1},
 "mtime": 19.124962027719164,
 "numbers": [3, 3, 3],
 "pbc": [true, true, true],
 "positions": [[0.0, 0.0, 0.0], [4.612650581178091, 2.6631150547208544, 4.953877316333038], [1.53755019372603, 0.8877050182402855, 2.477012967069351]],
 "unique_id": "734d785737e07616938d2229c8612127",
 "user": "jensj"},
"5": {
 "calculator": "aims",
 "cell": [[4.05, 0.0, 0.0], [2e-16, 4.05, 0.0], [2e-16, 2e-16, 4.05]],
 "ctime": 18.503494200086546,
 "energy": -11706.2333794647,
 "free_energy": -11706.2333794647,
 "key_value_pairs": {"element": "Li", "energy2": -11706.2165551059, "ns": 2},
 "mtime": 19.124962028085747,
 "numbers": [9, 9, 9, 9, 3, 3, 3, 3],
 "pbc": [true, true, true],
 "positions": [[2.025, 2.025, 2.025], [2.025, 0.0, 0.0], [1e-16, 2.025, 0.0], [1e-16, 1e-16, 2.025], [0.0, 0.0, 0.0], [2e-16, 2.025, 2.025], [2.025, 1e-16, 2.025], [2.025, 2.025, 0.0]],
 "unique_id": "47a823f41482b2635aaac4d1c519b5a8",
 "user": "jensj"},
"6": {
 "calculator": "aims",
 "cell": [[2.26276, 0.0, 0.0], [1.1313800000000003, 1.9596076426672764, 0.0], [2e-16, 1e-16, 3.57316]],
 "ctime": 18.503494165553168,
 "energy": -803.816774637753,
 "free_energy": -803.81674710335,
 "initial_magmoms": [0.0, 0.0],
 "key_value_pairs": {"element": "Be", "energy2": -803.801349755323, "ns": 1},
 "mtime": 19.124962028443715,
 "numbers": [4, 4],
 "pbc": [true, true, true],
 "positions": [[0.0, 0.0, 0.0], [1.1313686862, 0.6531960155302834, 1.78658]],
 "unique_id": "851d86b0e06d9c1a76baea1e7165da71",
 "user": "jensj"},
"7": {
 "calculator": "aims",
 "cell": [[4.883, 0.0, 0.0], [3e-16, 4.883, 0.0], [3e-16, 3e-16, 4.883]],
 "ctime": 18.50349420060662,
 "energy": -45066.1805236837,
 "free_energy": -45066.1805236782,
 "key_value_pairs": {"element": "Be", "energy2": -45066.0902424058, "ns": 2},
 "mtime": 19.124962028821134,
 "numbers": [16, 16, 16, 16, 4, 4, 4, 4],
 "pbc": [true, true, true],
 "positions": [[1.22075, 1.22075, 1.22075], [3.6622500000000007, 3.6622500000000002, 1.22075], [3.6622500000000007, 1.2207500000000002, 3.6622500000000002], [1.2207500000000004, 3.6622500000000007, 3.6622500000000002], [0.0, 0.0, 0.0], [3e-16, 2.4415, 2.4415], [2.4415, 1e-16, 2.4415], [2.4415, 2.4415, 0.0]],
 "unique_id": "c366001a75e614f8c04e1c141577d1f3",
 "user": "jensj"},
"8": {
 "calculator": "aims",
 "cell": [[4.90067, 0.0, 0.0], [-2.450334999999999, 4.244104715564285, 0.0], [2.450332590843175, -1.4147001809274191, 4.18412386919122]],
 "ctime": 18.503494165021337,
 "energy": -8114.24606480725,
 "free_energy": -8114.24606153332,
 "initial_magmoms": [0.0, 0.0, 0.0, 0.0, 0.0, 0.0, 0.0, 0.0, 0.0, 0.0, 0.0, 0.0],
 "key_value_pairs": {"element": "B", "energy2": -8114.08541378732, "ns": 1},
 "mtime": 19.124962029176938,
 "numbers": [5, 5, 5, 5, 5, 5, 5, 5, 5, 5, 5, 5],
 "pbc": [true, true, true],
 "positions": [[6.477998020862348, -0.9106707574452155, 2.8228191683498562], [-1.5773304300191722, 3.7400752920820817, 1.3613047008413632], [4.900643871312349, 1.8213867711049818, 2.8228191683498562], [2.37195308272e-05, 1.0080177635318843, 1.3613047008413632], [3.3232897217623476, -0.9106707574452155, 2.8228191683498562], [1.5773778690808276, 3.7400752920820817, 1.3613047008413632], [3.453232436907933, 0.8356784666863812, 0.3043531702449693], [1.447435153935243, 1.9937260679504851, 3.8797706989462504], [2.450359328107933, 2.5727056446725323, 0.3043531702449693], [2.4503082627352426, 0.2566988899643343, 3.8797706989462504], [1.4474862193079328, 0.8356784666863812, 0.3043531702449693], [3.4531813715352433, 1.9937260679504851, 3.8797706989462504]],
 "unique_id": "55f2c00e86b6c415ac78b41c774a3f36",
 "user": "jensj"},
"9": {
 "calculator": "aims",
 "cell": [[2.485, 0.0, 0.0], [-1.2424999999999995, 2.15207312840433, 0.0], [4e-16, 7e-16, 6.49]],
 "ctime": 18.50349420113523,
 "energy": -4337.5518570311,
 "free_energy": -4337.55185703125,
 "key_value_pairs": {"element": "B", "energy2": -4337.58649765234, "ns": 2},
 "mtime": 19.12496202947301,
 "numbers": [7, 7, 5, 5],
 "pbc": [true, true, true],
 "positions": [[-7e-16, 1.434715418936221, 4.8675], [1.2425000000000013, 0.7173577094681096, 1.6225], [-9e-16, 1.4347154189362208, 1.6225], [1.2425000000000015, 0.71735770946811, 4.8675]],
 "unique_id": "6d14e6c97e4c9b35698ecc24867ad8a7",
 "user": "jensj"},
"10": {
 "calculator": "aims",
 "cell": [[2.46857, 0.0, 0.0], [-1.2342849999999996, 2.137844331020152, 0.0], [5e-16, 9e-16, 8.84079]],
 "ctime": 18.5034941676053,
 "energy": -4147.44268325559,
 "free_energy": -4147.44267980135,
 "initial_magmoms": [0.0, 0.0, 0.0, 0.0],
 "key_value_pairs": {"element": "C", "energy2": -4147.36381094848, "ns": 1},
 "mtime": 19.12496202976691,
 "numbers": [6, 6, 6, 6],
 "pbc": [true, true, true],
 "positions": [[1e-16, 2e-16, 2.2101975], [4e-16, 7e-16, 6.6305925000000006], [-1.23428499995e-05, 1.4252366801612049, 2.2101975], [1.2342973428500006, 0.712607650858948, 6.6305925000000006]],
 "unique_id": "65aecc9ff69fb913c09d718fd3258380",
 "user": "jensj"},
"11": {
 "calculator": "aims",
 "cell": [[4.334, 0.0, 0.0], [3e-16, 4.334, 0.0], [3e-16, 3e-16, 4.334]],
 "ctime": 18.50349420165246,
 "energy": -97085.4969213089,
 "free_energy": -97085.4961601497,
 "key_value_pairs": {"element": "C", "energy2": -97085.3451036182, "ns": 2},
 "mtime": 19.12496203006902,
 "numbers": [6, 6, 6, 6, 22, 22, 22, 22],
 "pbc": [true, true, true],
 "positions": [[2.167, 2.167, 2.167], [2.167, 0.0, 0.0], [1e-16, 2.167, 0.0], [1e-16, 1e-16, 2.167], [0.0, 0.0, 0.0], [3e-16, 2.167, 2.167], [2.167, 1e-16, 2.167], [2.167, 2.167, 0.0]],
 "unique_id": "88184741c7b823f68ce87d18ec0485de",
 "user": "jensj"},
"12": {
 "calculator": "aims",
 "cell": [[6.19019, 0.0, 0.0], [4e-16, 6.19019, 0.0], [4e-16, 4e-16, 6.19019]],
 "ctime": 18.50349418178097,
 "energy": -11921.1132893654,
 "free_energy": -11921.1132893654,
 "initial_magmoms": [0.0, 0.0, 0.0, 0.0, 0.0, 0.0, 0.0, 0.0],
 "key_value_pairs": {"element": "N", "energy2": -11920.9200012037, "ns": 1},
 "mtime": 19.124962030421287,
 "numbers": [7, 7, 7, 7, 7, 7, 7, 7],
 "pbc": [true, true, true],
 "positions": [[0.3212089591, 0.3212089591, 0.3212089591], [5.8689810409000005, 5.8689810409000005, 5.8689810409000005], [2.773886040900001, 5.8689810409000005, 3.4163039591], [3.4163039591, 0.3212089591000002, 2.7738860409000003], [5.8689810409000005, 3.4163039591, 2.7738860409000003], [0.3212089591000004, 2.7738860409000003, 3.4163039591], [3.4163039591000004, 2.773886040900001, 5.8689810409000005], [2.7738860409000003, 3.4163039591, 0.3212089591]],
 "unique_id": "15a82e1a2b96ac3b4e2aff0182619b96",
 "user": "jensj"},
"13": {
 "calculator": "aims",
 "cell": [[4.13, 0.0, 0.0], [3e-16, 4.13, 0.0], [3e-16, 3e-16, 4.13]],
 "ctime": 18.50349420218617,
 "energy": -109294.384574572,
 "free_energy": -109294.378120759,
 "key_value_pairs": {"element": "N", "energy2": -109294.164676595, "ns": 2},
 "mtime": 19.124962030720866,
 "numbers": [7, 7, 7, 7, 23, 23, 23, 23],
 "pbc": [true, true, true],
 "positions": [[2.065, 2.065, 2.065], [2.065, 0.0, 0.0], [1e-16, 2.065, 0.0], [1e-16, 1e-16, 2.065], [0.0, 0.0, 0.0], [3e-16, 2.065, 2.065], [2.065, 1e-16, 2.065], [2.065, 2.065, 0.0]],
 "unique_id": "92bb1d79ec7e1377dbe954f659ff3605",
 "user": "jensj"},
"14": {
 "calculator": "aims",
 "cell": [[4.27163, 0.0, 0.0], [3e-16, 4.27682, 0.0], [1.806668821862107, 2e-16, 4.1993305607574385]],
 "ctime": 18.503494183410716,
 "energy": -8182.26920277501,
 "free_energy": -8182.2691891762,
 "initial_magmoms": [0.0, 0.0, 0.0, 0.0],
 "key_value_pairs": {"element": "O", "energy2": -8182.12171716935, "ns": 1},
 "mtime": 19.124962030998788,
 "numbers": [8, 8, 8, 8],
 "pbc": [true, true, true],
 "positions": [[4.271004162702515, 0.0, 0.6159158133462935], [1.8072946591595918, 1e-16, 3.5834147474111453], [2.1351891627025155, 2.13841, 0.6159158133462935], [3.943109659159592, 2.13841, 3.5834147474111453]],
 "unique_id": "74b0fe8371626d683c3c0a2b23939bd5",
 "user": "jensj"},
"15": {
 "calculator": "aims",
 "cell": [[4.6946, 0.0, 0.0], [3e-16, 4.6946, 0.0], [3e-16, 3e-16, 4.6946]],
 "ctime": 18.503494202712208,
 "energy": -617118.234136163,
 "free_energy": -617118.237583186,
 "key_value_pairs": {"element": "O", "energy2": -617118.325680736, "ns": 2},
 "mtime": 19.124962031338946,
 "numbers": [8, 8, 8, 8, 48, 48, 48, 48],
 "pbc": [true, true, true],
 "positions": [[2.3473, 2.3473, 2.3473], [2.3473, 0.0, 0.0], [1e-16, 2.3473, 0.0], [1e-16, 1e-16, 2.3473], [0.0, 0.0, 0.0], [3e-16, 2.3473, 2.3473], [2.3473, 1e-16, 2.3473], [2.3473, 2.3473, 0.0]],
 "unique_id": "eb6155257e6156f7dc6990abe31b47d7",
 "user": "jensj"},
"16": {
 "calculator": "aims",
 "cell": [[6.1631, 0.0, 0.0], [2e-16, 3.68505, 0.0], [-0.8170433945642811, 5e-16, 6.8770648372906065]],
 "ctime": 18.503494171122423,
 "energy": -21728.0672862367,
 "free_energy": -21728.0672862752,
 "initial_magmoms": [0.0, 0.0, 0.0, 0.0, 0.0, 0.0, 0.0, 0.0],
 "key_value_pairs": {"element": "F", "energy2": -21728.0001264571, "ns": 1},
 "mtime": 19.12496203171971,
 "numbers": [9, 9, 9, 9, 9, 9, 9, 9],
 "pbc": [true, true, true],
 "positions": [[1.4946822052696644, 1.2171720149999998, 0.6473381131341648], [3.851374400166055, 2.4678779850000003, 6.229726724156442], [4.259896097448195, 1.217172015, 2.7911943055111386], [1.086160507987524, 2.4678779850000003, 4.085870531779468], [4.5762322052696645, 3.0596970150000002, 0.6473381131341648], [0.7698244001660546, 0.6253529850000004, 6.229726724156442], [1.1783460974481954, 3.0596970150000002, 2.7911943055111386], [4.167710507987524, 0.6253529850000002, 4.085870531779468]],
 "unique_id": "264ebb6f4e88f927fc02ce191c03151e",
 "user": "jensj"},
"17": {
 "calculator": "aims",
 "cell": [[4.76, 0.0, 0.0], [3e-16, 4.76, 0.0], [3e-16, 3e-16, 4.76]],
 "ctime": 18.503494203251908,
 "energy": -28565.6606610671,
 "free_energy": -28565.660661067,
 "key_value_pairs": {"element": "F", "energy2": -28565.5779549731, "ns": 2},
 "mtime": 19.124962032136438,
 "numbers": [9, 9, 9, 9, 11, 11, 11, 11],
 "pbc": [true, true, true],
 "positions": [[2.38, 2.38, 2.38], [2.38, 0.0, 0.0], [1e-16, 2.38, 0.0], [1e-16, 1e-16, 2.38], [0.0, 0.0, 0.0], [3e-16, 2.38, 2.38], [2.38, 1e-16, 2.38], [2.38, 2.38, 0.0]],
 "unique_id": "292ac8e296bc2c5faec7d99ff1362085",
 "user": "jensj"},
"18": {
 "calculator": "aims",
 "cell": [[4.62262, 0.0, 0.0], [3e-16, 4.62262, 0.0], [3e-16, 3e-16, 4.62262]],
 "ctime": 18.503494182313627,
 "energy": -14042.4586093189,
 "free_energy": -14042.4586093189,
 "initial_magmoms": [0.0, 0.0, 0.0, 0.0],
 "key_value_pairs": {"element": "Ne", "energy2": -14042.4575029582, "ns": 1},
 "mtime": 19.124962032529933,
 "numbers": [10, 10, 10, 10],
 "pbc": [true, true, true],
 "positions": [[0.0, 0.0, 0.0], [3e-16, 2.31131, 2.31131], [2.31131, 1e-16, 2.31131], [2.31131, 2.31131, 0.0]],
 "unique_id": "aa921afe19e5c92f3c2dc7c111bae741",
 "user": "jensj"},
"19": {
 "calculator": "aims",
 "cell": [[3.7427861709673826, 0.0, 0.0], [1.871393085483689, 3.2413479049908394, 0.0], [1.8713930854836882, 1.0804493016636145, 9.166880053924478]],
 "ctime": 18.503494180720264,
 "energy": -13260.036110723,
 "initial_magmoms": [0.0, 0.0, 0.0],
 "key_value_pairs": {"element": "Na", "energy2": -13260.0293110166, "ns": 1},
 "mtime": 19.12496203288675,
 "numbers": [11, 11, 11],
 "pbc": [true, true, true],
 "positions": [[0.0, 0.0, 0.0], [5.614179256451069, 3.2413479049908402, 6.111192256749293], [1.8713930854836895, 1.080449301663613, 3.0556877971751875]],
 "unique_id": "6ebb19abc428f53933359d6ef7b123ee",
 "user": "jensj"},
"20": {
 "calculator": "aims",
 "cell": [[5.6402, 0.0, 0.0], [3e-16, 5.6402, 0.0], [3e-16, 3e-16, 5.6402]],
 "ctime": 18.503494203800567,
 "energy": -67925.9264198082,
 "free_energy": -67925.9264198084,
 "key_value_pairs": {"element": "Na", "energy2": -67925.9346358065, "ns": 2},
 "mtime": 19.1249620332587,
 "numbers": [17, 17, 17, 17, 11, 11, 11, 11],
 "pbc": [true, true, true],
 "positions": [[2.8201, 2.8201, 2.8201], [2.8201, 0.0, 0.0], [2e-16, 2.8201, 0.0], [2e-16, 2e-16, 2.8201], [0.0, 0.0, 0.0], [3e-16, 2.8201, 2.8201], [2.8201, 2e-16, 2.8201], [2.8201, 2.8201, 0.0]],
 "unique_id": "f975646c8ae645b27738c33c65364dae",
 "user": "jensj"},
"21": {
 "calculator": "aims",
 "cell": [[3.19405, 0.0, 0.0], [1.5970250000000004, 2.766128440957686, 0.0], [3e-16, 2e-16, 5.17198]],
 "ctime": 18.503494178986898,
 "energy": -10902.6148641757,
 "free_energy": -10902.6149473851,
 "initial_magmoms": [0.0, 0.0],
 "key_value_pairs": {"element": "Mg", "energy2": -10902.604921071, "ns": 1},
 "mtime": 19.124962033639246,
 "numbers": [12, 12],
 "pbc": [true, true, true],
 "positions": [[0.0, 0.0, 0.0], [1.5970090297500004, 0.9220335932244257, 2.58599]],
 "unique_id": "3c90b54c450effed3a395cc97af39e5f",
 "user": "jensj"},
"22": {
 "calculator": "aims",
 "cell": [[4.183, 0.0, 0.0], [3e-16, 4.183, 0.0], [3e-16, 3e-16, 4.183]],
 "ctime": 18.503494204365193,
 "energy": -30010.1390042618,
 "free_energy": -30010.1390042618,
 "key_value_pairs": {"element": "Mg", "energy2": -30010.2337600803, "ns": 2},
 "mtime": 19.124962034023806,
 "numbers": [8, 8, 8, 8, 12, 12, 12, 12],
 "pbc": [true, true, true],
 "positions": [[2.0915, 2.0915, 2.0915], [2.0915, 0.0, 0.0], [1e-16, 2.0915, 0.0], [1e-16, 1e-16, 2.0915], [0.0, 0.0, 0.0], [3e-16, 2.0915, 2.0915], [2.0915, 1e-16, 2.0915], [2.0915, 2.0915, 0.0]],
 "unique_id": "73616125d99404411a56a839a7bfe7e1",
 "user": "jensj"},
"23": {
 "calculator": "aims",
 "cell": [[4.04021, 0.0, 0.0], [2e-16, 4.04021, 0.0], [2e-16, 2e-16, 4.04021]],
 "ctime": 18.503494162455205,
 "energy": -26429.7178435939,
 "free_energy": -26429.7182125883,
 "initial_magmoms": [0.0, 0.0, 0.0, 0.0],
 "key_value_pairs": {"element": "Al", "energy2": -26429.6811845138, "ns": 1},
 "mtime": 19.12496203442862,
 "numbers": [13, 13, 13, 13],
 "pbc": [true, true, true],
 "positions": [[0.0, 0.0, 0.0], [2e-16, 2.020105, 2.020105], [2.020105, 1e-16, 2.020105], [2.020105, 2.020105, 0.0]],
 "unique_id": "92ccbfa96c15b42f0539e8a0d6ea6e0b",
 "user": "jensj"},
"24": {
 "calculator": "aims",
 "cell": [[5.463, 0.0, 0.0], [3e-16, 5.463, 0.0], [3e-16, 3e-16, 5.463]],
 "ctime": 18.503494204897024,
 "energy": -63670.1100310241,
 "free_energy": -63670.110032488,
 "key_value_pairs": {"element": "Al", "energy2": -63670.1102513972, "ns": 2},
 "mtime": 19.124962034881662,
 "numbers": [15, 15, 15, 15, 13, 13, 13, 13],
 "pbc": [true, true, true],
 "positions": [[1.36575, 1.36575, 1.36575], [4.09725, 4.09725, 1.36575], [4.09725, 1.3657500000000002, 4.09725], [1.3657500000000005, 4.09725, 4.09725], [0.0, 0.0, 0.0], [3e-16, 2.7315, 2.7315], [2.7315, 2e-16, 2.7315], [2.7315, 2.7315, 0.0]],
 "unique_id": "cb30e64223223e6605be1bf7365b4b9f",
 "user": "jensj"},
"25": {
 "calculator": "aims",
 "cell": [[3.86709, 0.0, 0.0], [1.9335450000000005, 3.3489981787207648, 0.0], [1.9335450000000005, 1.1163327262402551, 3.1574657631397995]],
 "ctime": 18.503494192164176,
 "energy": -15784.3046189653,
 "free_energy": -15784.3046124086,
 "initial_magmoms": [0.0, 0.0],
 "key_value_pairs": {"element": "Si", "energy2": -15784.2791754644, "ns": 1},
 "mtime": 19.124962035367474,
 "numbers": [14, 14],
 "pbc": [true, true, true],
 "positions": [[0.0, 0.0, 0.0], [1.9335450000000003, 1.116332726240255, 0.7893664407849499]],
 "unique_id": "26945d1824b02a8eef9adf0a0bdd8da3",
 "user": "jensj"},
"26": {
 "calculator": "aims",
 "cell": [[4.3591, 0.0, 0.0], [3e-16, 4.3591, 0.0], [3e-16, 3e-16, 4.3591]],
 "ctime": 18.503494205468037,
 "energy": -35717.5981547015,
 "free_energy": -35717.5981581202,
 "key_value_pairs": {"element": "Si", "energy2": -35717.5469048331, "ns": 2},
 "mtime": 19.124962035829245,
 "numbers": [6, 6, 6, 6, 14, 14, 14, 14],
 "pbc": [true, true, true],
 "positions": [[1.089775, 1.089775, 1.089775], [3.269325, 3.269325, 1.089775], [3.269325, 1.0897750000000002, 3.269325], [1.0897750000000004, 3.269325, 3.269325], [0.0, 0.0, 0.0], [3e-16, 2.17955, 2.17955], [2.17955, 1e-16, 2.17955], [2.17955, 2.17955, 0.0]],
 "unique_id": "a75eaac30d6e1239be6710fa653f4a1f",
 "user": "jensj"},
"27": {
 "calculator": "aims",
 "cell": [[3.30466, 0.0, 0.0], [7e-16, 11.31694, 0.0], [3e-16, 3e-16, 4.57327]],
 "ctime": 18.503494185046772,
 "energy": -74470.6579324927,
 "free_energy": -74470.6575242393,
 "initial_magmoms": [0.0, 0.0, 0.0, 0.0, 0.0, 0.0, 0.0, 0.0],
 "key_value_pairs": {"element": "P", "energy2": -74470.5855009681, "ns": 1},
 "mtime": 19.124962036307622,
 "numbers": [15, 15, 15, 15, 15, 15, 15, 15],
 "pbc": [true, true, true],
 "positions": [[1e-16, 1.0589260758, 0.3987434113], [9e-16, 10.2580139242, 4.1745265887], [4e-16, 4.599543924200001, 2.6853784113], [5e-16, 6.717396075800001, 1.8878915887], [1.6523300000000005, 6.717396075800001, 0.3987434113], [1.6523300000000005, 4.599543924200001, 4.1745265887], [1.652330000000001, 10.2580139242, 2.6853784113], [1.6523300000000003, 1.0589260758000003, 1.8878915887]],
 "unique_id": "10a0423d271cea133f717d6695f168e2",
 "user": "jensj"},
"28": {
 "calculator": "aims",
 "cell": [[5.8687, 0.0, 0.0], [4e-16, 5.8687, 0.0], [4e-16, 4e-16, 5.8687]],
 "ctime": 18.5034942060164,
 "energy": -677405.451095507,
 "free_energy": -677405.451191692,
 "key_value_pairs": {"element": "P", "energy2": -677405.536244215, "ns": 2},
 "mtime": 19.124962036769492,
 "numbers": [15, 15, 15, 15, 49, 49, 49, 49],
 "pbc": [true, true, true],
 "positions": [[1.467175, 1.467175, 1.467175], [4.4015249999999995, 4.4015249999999995, 1.467175], [4.4015249999999995, 1.4671750000000001, 4.4015249999999995], [1.4671750000000003, 4.4015249999999995, 4.4015249999999995], [0.0, 0.0, 0.0], [4e-16, 2.93435, 2.93435], [2.93435, 2e-16, 2.93435], [2.93435, 2.93435, 0.0]],
 "unique_id": "65f627a19c1676653249812ad260eb69",
 "user": "jensj"},
"29": {
 "calculator": "aims",
 "cell": [[2.58153, 0.0, 0.0], [-0.0655681896774996, 2.58069718359253, 0.0], [-0.0655681896774996, -0.0672552507513197, 2.5798206690870575]],
 "ctime": 18.503494191066153,
 "energy": -10861.890441063,
 "free_energy": -10861.8901890711,
 "initial_magmoms": [0.0],
 "key_value_pairs": {"element": "S", "energy2": -10861.8807399712, "ns": 1},
 "mtime": 19.124962037263114,
 "numbers": [16],
 "pbc": [true, true, true],
 "positions": [[0.0, 0.0, 0.0]],
 "unique_id": "745ca0d19a5d9ffbdbdb29b42f893af1",
 "user": "jensj"},
"30": {
 "calculator": "aims",
 "cell": [[5.404, 0.0, 0.0], [3e-16, 5.404, 0.0], [3e-16, 3e-16, 5.404]],
 "ctime": 18.50349420656927,
 "energy": -238943.939993564,
 "free_energy": -238943.939993657,
 "key_value_pairs": {"element": "S", "energy2": -238943.934439739, "ns": 2},
 "mtime": 19.12496203775955,
 "numbers": [16, 16, 16, 16, 30, 30, 30, 30],
 "pbc": [true, true, true],
 "positions": [[1.351, 1.351, 1.351], [4.053, 4.053, 1.351], [4.053, 1.3510000000000002, 4.053], [1.3510000000000004, 4.053, 4.053], [0.0, 0.0, 0.0], [3e-16, 2.702, 2.702], [2.702, 2e-16, 2.702], [2.702, 2.702, 0.0]],
 "unique_id": "cb2208b25a9cee6ca9ca6925f4424a24",
 "user": "jensj"},
"31": {
 "calculator": "aims",
 "cell": [[7.77875, 0.0, 0.0], [3e-16, 4.34941, 0.0], [6e-16, 6e-16, 9.02754]],
 "ctime": 18.503494168625057,
 "energy": -100462.530651073,
 "free_energy": -100462.530651624,
 "initial_magmoms": [0.0, 0.0, 0.0, 0.0, 0.0, 0.0, 0.0, 0.0],
 "key_value_pairs": {"element": "Cl", "energy2": -100462.51742506, "ns": 1},
 "mtime": 19.12496203814101,
 "numbers": [17, 17, 17, 17, 17, 17, 17, 17],
 "pbc": [true, true, true],
 "positions": [[6e-16, 1.7781257962000003, 8.1110641392], [2e-16, 0.3965792038000002, 3.5972941392], [6e-16, 3.9528307962, 5.4302458608], [2e-16, 2.5712842038, 0.9164758608], [3.8893750000000007, 3.9528307962, 8.1110641392], [3.889375, 2.5712842038, 3.5972941392], [3.8893750000000002, 1.7781257962, 5.4302458608], [3.889375, 0.3965792038, 0.9164758608]],
 "unique_id": "a248bf8aefbb5ee9643dc44ed469a6b1",
 "user": "jensj"},
"32": {
 "calculator": "aims",
 "cell": [[5.407, 0.0, 0.0], [3e-16, 5.407, 0.0], [3e-16, 3e-16, 5.407]],
 "ctime": 18.503494207119758,
 "energy": -230367.260226572,
 "free_energy": -230367.260706594,
 "key_value_pairs": {"element": "Cl", "energy2": -230367.235855143, "ns": 2},
 "mtime": 19.124962038518852,
 "numbers": [17, 17, 17, 17, 29, 29, 29, 29],
 "pbc": [true, true, true],
 "positions": [[1.35175, 1.35175, 1.35175], [4.05525, 4.05525, 1.35175], [4.05525, 1.3517500000000002, 4.05525], [1.3517500000000005, 4.05525, 4.05525], [0.0, 0.0, 0.0], [3e-16, 2.7035, 2.7035], [2.7035, 2e-16, 2.7035], [2.7035, 2.7035, 0.0]],
 "unique_id": "ad41f92937236c78d4905ae0090321f7",
 "user": "jensj"},
"33": {
 "calculator": "aims",
 "cell": [[5.95059, 0.0, 0.0], [4e-16, 5.95059, 0.0], [4e-16, 4e-16, 5.95059]],
 "ctime": 18.50349416297573,
 "energy": -57603.3616945219,
 "free_energy": -57603.3616945219,
 "initial_magmoms": [0.0, 0.0, 0.0, 0.0],
 "key_value_pairs": {"element": "Ar", "energy2": -57603.3605147966, "ns": 1},
 "mtime": 19.12496203900946,
 "numbers": [18, 18, 18, 18],
 "pbc": [true, true, true],
 "positions": [[0.0, 0.0, 0.0], [4e-16, 2.975295, 2.975295], [2.975295, 2e-16, 2.975295], [2.975295, 2.975295, 0.0]],
 "unique_id": "e327585229d7956ed76844d791e349d8",
 "user": "jensj"},
"34": {
 "calculator": "aims",
 "cell": [[5.28589, 0.0, 0.0], [3e-16, 5.28589, 0.0], [3e-16, 3e-16, 5.28589]],
 "ctime": 18.503494176828692,
 "energy": -32768.6186721277,
 "free_energy": -32768.6177639962,
 "initial_magmoms": [0.0, 0.0],
 "key_value_pairs": {"element": "K", "energy2": -32768.6142546604, "ns": 1},
 "mtime": 19.12496203947,
 "numbers": [19, 19],
 "pbc": [true, true, true],
 "positions": [[0.0, 0.0, 0.0], [2.642945, 2.642945, 2.642945]],
 "unique_id": "c30b6bfbf157d954b7585d6ef14e6c6f",
 "user": "jensj"},
"35": {
 "calculator": "aims",
 "cell": [[6.2916, 0.0, 0.0], [4e-16, 6.2916, 0.0], [4e-16, 4e-16, 6.2916]],
 "ctime": 18.503494207678468,
 "energy": -115784.356079159,
 "free_energy": -115784.356079157,
 "key_value_pairs": {"element": "K", "energy2": -115784.380792901, "ns": 2},
 "mtime": 19.124962039988734,
 "numbers": [19, 19, 19, 19, 17, 17, 17, 17],
 "pbc": [true, true, true],
 "positions": [[3.1458, 3.1458, 3.1458], [3.1458, 0.0, 0.0], [2e-16, 3.1458, 0.0], [2e-16, 2e-16, 3.1458], [0.0, 0.0, 0.0], [4e-16, 3.1458, 3.1458], [3.1458, 2e-16, 3.1458], [3.1458, 3.1458, 0.0]],
 "unique_id": "d05563acda402eecb34c7120704bdeec",
 "user": "jensj"},
"36": {
 "calculator": "aims",
 "cell": [[5.52507, 0.0, 0.0], [3e-16, 5.52507, 0.0], [3e-16, 3e-16, 5.52507]],
 "ctime": 18.503494167084618,
 "energy": -74056.4311343354,
 "free_energy": -74056.4296162494,
 "initial_magmoms": [0.0, 0.0, 0.0, 0.0],
 "key_value_pairs": {"element": "Ca", "energy2": -74056.4087918246, "ns": 1},
 "mtime": 19.124962040444785,
 "numbers": [20, 20, 20, 20],
 "pbc": [true, true, true],
 "positions": [[0.0, 0.0, 0.0], [3e-16, 2.762535, 2.762535], [2.762535, 2e-16, 2.762535], [2.762535, 2.762535, 0.0]],
 "unique_id": "19e9cb9b841ca52ace640cbd134737ad",
 "user": "jensj"},
"37": {
 "calculator": "aims",
 "cell": [[4.811, 0.0, 0.0], [3e-16, 4.811, 0.0], [3e-16, 3e-16, 4.811]],
 "ctime": 18.50349420824284,
 "energy": -82263.6370424227,
 "free_energy": -82263.6370424162,
 "key_value_pairs": {"element": "Ca", "energy2": -82263.5931928845, "ns": 2},
 "mtime": 19.12496204091538,
 "numbers": [8, 8, 8, 8, 20, 20, 20, 20],
 "pbc": [true, true, true],
 "positions": [[2.4055, 2.4055, 2.4055], [2.4055, 0.0, 0.0], [1e-16, 2.4055, 0.0], [1e-16, 1e-16, 2.4055], [0.0, 0.0, 0.0], [3e-16, 2.4055, 2.4055], [2.4055, 1e-16, 2.4055], [2.4055, 2.4055, 0.0]],
 "unique_id": "74155cd435f09a72de2e875474eee1fb",
 "user": "jensj"},
"38": {
 "calculator": "aims",
 "cell": [[3.32145, 0.0, 0.0], [1.6607250000000005, 2.8764600773998237, 0.0], [3e-16, 2e-16, 5.16192]],
 "ctime": 18.503494190499072,
 "energy": -41590.2503067025,
 "free_energy": -41590.2511465868,
 "initial_magmoms": [0.0, 0.0],
 "key_value_pairs": {"element": "Sc", "energy2": -41590.2265112561, "ns": 1},
 "mtime": 19.124962041436596,
 "numbers": [21, 21],
 "pbc": [true, true, true],
 "positions": [[0.0, 0.0, 0.0], [1.6607083927500004, 0.9588104375996834, 2.58096]],
 "unique_id": "20b435263e531869c1b8b514dcb8d11d",
 "user": "jensj"},
"39": {
 "calculator": "aims",
 "cell": [[5.199, 0.0, 0.0], [3e-16, 5.199, 0.0], [3e-16, 3e-16, 5.199]],
 "ctime": 18.503494208804725,
 "energy": -126645.653682976,
 "free_energy": -126645.647308615,
 "key_value_pairs": {"element": "Sc", "energy2": -126645.590567985, "ns": 2},
 "mtime": 19.12496204191807,
 "numbers": [16, 16, 16, 16, 21, 21, 21, 21],
 "pbc": [true, true, true],
 "positions": [[2.5995, 2.5995, 2.5995], [2.5995, 0.0, 0.0], [2e-16, 2.5995, 0.0], [2e-16, 2e-16, 2.5995], [0.0, 0.0, 0.0], [3e-16, 2.5995, 2.5995], [2.5995, 2e-16, 2.5995], [2.5995, 2.5995, 0.0]],
 "unique_id": "2af0b8dd30d209da84f6cacde04ceb1e",
 "user": "jensj"},
"40": {
 "calculator": "aims",
 "cell": [[2.93664, 0.0, 0.0], [1.4683200000000003, 2.543204841769534, 0.0], [3e-16, 2e-16, 4.65193]],
 "ctime": 18.50349419540848,
 "energy": -46465.7024615623,
 "free_energy": -46465.697993357,
 "initial_magmoms": [0.0, 0.0],
 "key_value_pairs": {"element": "Ti", "energy2": -46465.6731345162, "ns": 1},
 "mtime": 19.12496204237478,
 "numbers": [22, 22],
 "pbc": [true, true, true],
 "positions": [[0.0, 0.0, 0.0], [1.4683053168000004, 0.8477264699070389, 2.325965]],
 "unique_id": "305ee35c427df0b28eca395308c2b246",
 "user": "jensj"},
"41": {
 "calculator": "aims",
 "cell": [[4.242, 0.0, 0.0], [3e-16, 4.242, 0.0], [3e-16, 3e-16, 4.242]],
 "ctime": 18.503494209373883,
 "energy": -98905.6418955709,
 "free_energy": -98905.6410253917,
 "key_value_pairs": {"element": "Ti", "energy2": -98905.5037393766, "ns": 2},
 "mtime": 19.124962042900602,
 "numbers": [7, 7, 7, 7, 22, 22, 22, 22],
 "pbc": [true, true, true],
 "positions": [[2.121, 2.121, 2.121], [2.121, 0.0, 0.0], [1e-16, 2.121, 0.0], [1e-16, 1e-16, 2.121], [0.0, 0.0, 0.0], [3e-16, 2.121, 2.121], [2.121, 1e-16, 2.121], [2.121, 2.121, 0.0]],
 "unique_id": "79c644c1d1c01dc83b798ee0f5ae1ec6",
 "user": "jensj"},
"42": {
 "calculator": "aims",
 "cell": [[2.99894, 0.0, 0.0], [2e-16, 2.99894, 0.0], [2e-16, 2e-16, 2.99894]],
 "ctime": 18.50349419645866,
 "energy": -51663.0625926409,
 "free_energy": -51663.0669080933,
 "initial_magmoms": [0.0, 0.0],
 "key_value_pairs": {"element": "V", "energy2": -51663.0201618283, "ns": 1},
 "mtime": 19.124962043450246,
 "numbers": [23, 23],
 "pbc": [true, true, true],
 "positions": [[0.0, 0.0, 0.0], [1.49947, 1.49947, 1.49947]],
 "unique_id": "80be24159dfe7d32535ebee97a004b11",
 "user": "jensj"},
"43": {
 "calculator": "aims",
 "cell": [[4.167, 0.0, 0.0], [3e-16, 4.167, 0.0], [3e-16, 3e-16, 4.167]],
 "ctime": 18.50349420991638,
 "energy": -107477.064548252,
 "free_energy": -107477.060751809,
 "key_value_pairs": {"element": "V", "energy2": -107476.844248518, "ns": 2},
 "mtime": 19.124962043987605,
 "numbers": [6, 6, 6, 6, 23, 23, 23, 23],
 "pbc": [true, true, true],
 "positions": [[2.0835, 2.0835, 2.0835], [2.0835, 0.0, 0.0], [1e-16, 2.0835, 0.0], [1e-16, 1e-16, 2.0835], [0.0, 0.0, 0.0], [3e-16, 2.0835, 2.0835], [2.0835, 1e-16, 2.0835], [2.0835, 2.0835, 0.0]],
 "unique_id": "432e1a132c755e25d90ded870224a124",
 "user": "jensj"},
"44": {
 "calculator": "aims",
 "cell": [[2.871, 0.0, 0.0], [2e-16, 2.871, 0.0], [2e-16, 2e-16, 2.871]],
 "ctime": 18.503494169630578,
 "energy": -57190.3486076869,
 "free_energy": -57190.3463514264,
 "initial_magmoms": [0.0, 0.0],
 "key_value_pairs": {"element": "Cr", "energy2": -57190.2635360762, "ns": 1},
 "mtime": 19.124962044491447,
 "numbers": [24, 24],
 "pbc": [true, true, true],
 "positions": [[0.0, 0.0, 0.0], [1.4355, 1.4355, 1.4355]],
 "unique_id": "16b850073f980dcfae5d0202c591c9ce",
 "user": "jensj"},
"45": {
 "calculator": "aims",
 "cell": [[4.149, 0.0, 0.0], [3e-16, 4.149, 0.0], [3e-16, 3e-16, 4.149]],
 "ctime": 18.50349421046656,
 "energy": -120342.476912042,
 "free_energy": -120342.466484698,
 "key_value_pairs": {"element": "Cr", "energy2": -120341.87945528, "ns": 2},
 "mtime": 19.12496204501523,
 "numbers": [7, 7, 7, 7, 24, 24, 24, 24],
 "pbc": [true, true, true],
 "positions": [[2.0745, 2.0745, 2.0745], [2.0745, 0.0, 0.0], [1e-16, 2.0745, 0.0], [1e-16, 1e-16, 2.0745], [0.0, 0.0, 0.0], [3e-16, 2.0745, 2.0745], [2.0745, 1e-16, 2.0745], [2.0745, 2.0745, 0.0]],
 "unique_id": "f8e8468c67a90bc6e954e675e0a1c763",
 "user": "jensj"},
"46": {
 "calculator": "aims",
 "cell": [[3.59552, 0.0, 0.0], [2e-16, 3.59552, 0.0], [2e-16, 2e-16, 3.59552]],
 "ctime": 18.503494179533423,
 "energy": -126109.183133161,
 "free_energy": -126109.178550721,
 "initial_magmoms": [0.0, 0.0, 0.0, 0.0],
 "key_value_pairs": {"element": "Mn", "energy2": -126108.842626948, "ns": 1},
 "mtime": 19.124962045538577,
 "numbers": [25, 25, 25, 25],
 "pbc": [true, true, true],
 "positions": [[0.0, 0.0, 0.0], [2e-16, 1.79776, 1.79776], [1.79776, 1e-16, 1.79776], [1.79776, 1.79776, 0.0]],
 "unique_id": "666a6c06406d56fdc6b971870ff069cf",
 "user": "jensj"},
"47": {
 "calculator": "aims",
 "cell": [[5.224, 0.0, 0.0], [3e-16, 5.224, 0.0], [3e-16, 3e-16, 5.224]],
 "ctime": 18.50349421103735,
 "energy": -169554.182152269,
 "free_energy": -169554.199883375,
 "key_value_pairs": {"element": "Mn", "energy2": -169553.085128886, "ns": 2},
 "mtime": 19.12496204608235,
 "numbers": [16, 16, 16, 16, 25, 25, 25, 25],
 "pbc": [true, true, true],
 "positions": [[2.612, 2.612, 2.612], [2.612, 0.0, 0.0], [2e-16, 2.612, 0.0], [2e-16, 2e-16, 2.612], [0.0, 0.0, 0.0], [3e-16, 2.612, 2.612], [2.612, 2e-16, 2.612], [2.612, 2.612, 0.0]],
 "unique_id": "ee2e826bbdf752ae06e76e1d16c0d31c",
 "user": "jensj"},
"48": {
 "calculator": "aims",
 "cell": [[2.83351, 0.0, 0.0], [2e-16, 2.83351, 0.0], [2e-16, 2e-16, 2.83351]],
 "ctime": 18.503494171642792,
 "energy": -69265.5042917728,
 "free_energy": -69265.5004446953,
 "initial_magmoms": [0.0, 0.0],
 "key_value_pairs": {"element": "Fe", "energy2": -69265.3392515659, "ns": 1},
 "mtime": 19.124962046553577,
 "numbers": [26, 26],
 "pbc": [true, true, true],
 "positions": [[0.0, 0.0, 0.0], [1.416755, 1.416755, 1.416755]],
 "unique_id": "832468536f5589e726938bcf0fbd5ded",
 "user": "jensj"},
"49": {
 "calculator": "aims",
 "cell": [[4.323, 0.0, 0.0], [3e-16, 4.323, 0.0], [3e-16, 3e-16, 4.323]],
 "ctime": 18.503494211585792,
 "energy": -146717.343145981,
 "free_energy": -146717.385768718,
 "key_value_pairs": {"element": "Fe", "energy2": -146716.577778535, "ns": 2},
 "mtime": 19.124962047100738,
 "numbers": [8, 8, 8, 8, 26, 26, 26, 26],
 "pbc": [true, true, true],
 "positions": [[2.1615, 2.1615, 2.1615], [2.1615, 0.0, 0.0], [1e-16, 2.1615, 0.0], [1e-16, 1e-16, 2.1615], [0.0, 0.0, 0.0], [3e-16, 2.1615, 2.1615], [2.1615, 1e-16, 2.1615], [2.1615, 2.1615, 0.0]],
 "unique_id": "8b6a1169cdc1c724e6b818875fa79542",
 "user": "jensj"},
"50": {
 "calculator": "aims",
 "cell": [[2.4968, 0.0, 0.0], [1.2484000000000002, 2.1622922281689863, 0.0], [2e-16, 1e-16, 4.03081]],
 "ctime": 18.50349416912899,
 "energy": -75832.8873975425,
 "free_energy": -75832.8802871284,
 "initial_magmoms": [0.0, 0.0],
 "key_value_pairs": {"element": "Co", "energy2": -75832.7718396057, "ns": 1},
 "mtime": 19.124962047606388,
 "numbers": [27, 27],
 "pbc": [true, true, true],
 "positions": [[0.0, 0.0, 0.0], [1.2483875160000004, 0.7207568684155683, 2.015405]],
 "unique_id": "8180a2513b2bbff164632ab88ca866d5",
 "user": "jensj"},
"51": {
 "calculator": "aims",
 "cell": [[4.2581, 0.0, 0.0], [3e-16, 4.2581, 0.0], [3e-16, 3e-16, 4.2581]],
 "ctime": 18.503494212180726,
 "energy": -159852.114770807,
 "free_energy": -159852.158807901,
 "key_value_pairs": {"element": "Co", "energy2": -159851.540169381, "ns": 2},
 "mtime": 19.12496204815597,
 "numbers": [8, 8, 8, 8, 27, 27, 27, 27],
 "pbc": [true, true, true],
 "positions": [[2.12905, 2.12905, 2.12905], [2.12905, 0.0, 0.0], [1e-16, 2.12905, 0.0], [1e-16, 1e-16, 2.12905], [0.0, 0.0, 0.0], [3e-16, 2.12905, 2.12905], [2.12905, 1e-16, 2.12905], [2.12905, 2.12905, 0.0]],
 "unique_id": "2d57d1a39d272a03d369187515c87232",
 "user": "jensj"},
"52": {
 "calculator": "aims",
 "cell": [[3.52414, 0.0, 0.0], [2e-16, 3.52414, 0.0], [2e-16, 2e-16, 3.52414]],
 "ctime": 18.503494182857665,
 "energy": -165527.204894569,
 "free_energy": -165527.229053706,
 "initial_magmoms": [0.0, 0.0, 0.0, 0.0],
 "key_value_pairs": {"element": "Ni", "energy2": -165527.108726381, "ns": 1},
 "mtime": 19.124962048703235,
 "numbers": [28, 28, 28, 28],
 "pbc": [true, true, true],
 "positions": [[0.0, 0.0, 0.0], [2e-16, 1.76207, 1.76207], [1.76207, 1e-16, 1.76207], [1.76207, 1.76207, 0.0]],
 "unique_id": "7f9ce7a1cc56bc0b57a27e84bd4bd78f",
 "user": "jensj"},
"53": {
 "calculator": "aims",
 "cell": [[4.179, 0.0, 0.0], [3e-16, 4.179, 0.0], [3e-16, 3e-16, 4.179]],
 "ctime": 18.503494212742186,
 "energy": -173714.520056068,
 "free_energy": -173714.525372339,
 "key_value_pairs": {"element": "Ni", "energy2": -173714.341059885, "ns": 2},
 "mtime": 19.124962049192785,
 "numbers": [8, 8, 8, 8, 28, 28, 28, 28],
 "pbc": [true, true, true],
 "positions": [[2.0895, 2.0895, 2.0895], [2.0895, 0.0, 0.0], [1e-16, 2.0895, 0.0], [1e-16, 1e-16, 2.0895], [0.0, 0.0, 0.0], [3e-16, 2.0895, 2.0895], [2.0895, 1e-16, 2.0895], [2.0895, 2.0895, 0.0]],
 "unique_id": "e487b9649a87a08efca5a7def50a8c3c",
 "user": "jensj"},
"54": {
 "calculator": "aims",
 "cell": [[3.63689, 0.0, 0.0], [2e-16, 3.63689, 0.0], [2e-16, 2e-16, 3.63689]],
 "ctime": 18.503494170617937,
 "energy": -180132.889568883,
 "free_energy": -180132.88950197,
 "initial_magmoms": [0.0, 0.0, 0.0, 0.0],
 "key_value_pairs": {"element": "Cu", "energy2": -180132.832226622, "ns": 1},
 "mtime": 19.124962049717837,
 "numbers": [29, 29, 29, 29],
 "pbc": [true, true, true],
 "positions": [[0.0, 0.0, 0.0], [2e-16, 1.8184450000000003, 1.818445], [1.8184450000000003, 1e-16, 1.818445], [1.8184450000000003, 1.818445, 0.0]],
 "unique_id": "93fc295bde7d656d729c532de88befcd",
 "user": "jensj"},
"55": {
 "calculator": "aims",
 "cell": [[5.82, 0.0, 0.0], [4e-16, 5.82, 0.0], [4e-16, 4e-16, 5.82]],
 "ctime": 18.503494213293227,
 "energy": -463828.156780102,
 "free_energy": -463828.157639487,
 "key_value_pairs": {"element": "Cu", "energy2": -463827.993691797, "ns": 2},
 "mtime": 19.1249620502153,
 "numbers": [35, 35, 35, 35, 29, 29, 29, 29],
 "pbc": [true, true, true],
 "positions": [[1.455, 1.455, 1.455], [4.365, 4.365, 1.455], [4.365, 1.4550000000000003, 4.365], [1.4550000000000005, 4.365, 4.365], [0.0, 0.0, 0.0], [4e-16, 2.91, 2.91], [2.91, 2e-16, 2.91], [2.91, 2.91, 0.0]],
 "unique_id": "4a80daf1078673b3aafa58ec64e9d307",
 "user": "jensj"},
"56": {
 "calculator": "aims",
 "cell": [[2.66169, 0.0, 0.0], [1.3308450000000003, 2.3050911569990022, 0.0], [3e-16, 2e-16, 5.00397]],
 "ctime": 18.503494198519096,
 "energy": -97743.6884171748,
 "free_energy": -97743.6889812447,
 "initial_magmoms": [0.0, 0.0],
 "key_value_pairs": {"element": "Zn", "energy2": -97743.6657377176, "ns": 1},
 "mtime": 19.124962050700482,
 "numbers": [30, 30],
 "pbc": [true, true, true],
 "positions": [[0.0, 0.0, 0.0], [1.3308316915500005, 0.7683560353624775, 2.501985]],
 "unique_id": "6e78792241a18d58729c1b2da7865de1",
 "user": "jensj"},
"57": {
 "calculator": "aims",
 "cell": [[4.569, 0.0, 0.0], [3e-16, 4.569, 0.0], [3e-16, 3e-16, 4.569]],
 "ctime": 18.50349421385669,
 "energy": -203682.254413407,
 "free_energy": -203682.25451672,
 "key_value_pairs": {"element": "Zn", "energy2": -203682.281099618, "ns": 2},
 "mtime": 19.124962051229893,
 "numbers": [8, 8, 8, 8, 30, 30, 30, 30],
 "pbc": [true, true, true],
 "positions": [[1.14225, 1.14225, 1.14225], [3.42675, 3.42675, 1.14225], [3.42675, 1.1422500000000002, 3.42675], [1.1422500000000004, 3.42675, 3.42675], [0.0, 0.0, 0.0], [3e-16, 2.2845, 2.2845], [2.2845, 1e-16, 2.2845], [2.2845, 2.2845, 0.0]],
 "unique_id": "64fc6ebab3c8008350c31bf3acc6ab61",
 "user": "jensj"},
"58": {
 "calculator": "aims",
 "cell": [[4.56689, 0.0, 0.0], [5e-16, 7.7533, 0.0], [3e-16, 3e-16, 4.59978]],
 "ctime": 18.50349417216124,
 "energy": -423188.492965442,
 "free_energy": -423188.494557254,
 "initial_magmoms": [0.0, 0.0, 0.0, 0.0, 0.0, 0.0, 0.0, 0.0],
 "key_value_pairs": {"element": "Ga", "energy2": -423188.427309851, "ns": 1},
 "mtime": 19.124962051775228,
 "numbers": [31, 31, 31, 31, 31, 31, 31, 31],
 "pbc": [true, true, true],
 "positions": [[1e-16, 1.2127711860000001, 0.373502136], [7e-16, 6.540528814, 4.226277864], [3e-16, 2.6638788140000003, 2.6733921360000004], [4e-16, 5.089421186, 1.926387864], [2.2834450000000004, 5.089421186, 0.373502136], [2.2834450000000004, 2.6638788140000007, 4.226277864], [2.2834450000000004, 6.540528814, 2.6733921360000004], [2.283445, 1.2127711860000003, 1.926387864]],
 "unique_id": "824c969a3b47f740dd227ee1e68c105c",
 "user": "jensj"},
"59": {
 "calculator": "aims",
 "cell": [[5.4508, 0.0, 0.0], [3e-16, 5.4508, 0.0], [3e-16, 3e-16, 5.4508]],
 "ctime": 18.503494214446103,
 "energy": -248833.013100041,
 "free_energy": -248833.013099655,
 "key_value_pairs": {"element": "Ga", "energy2": -248833.037213449, "ns": 2},
 "mtime": 19.124962052331522,
 "numbers": [15, 15, 15, 15, 31, 31, 31, 31],
 "pbc": [true, true, true],
 "positions": [[1.3627, 1.3627, 1.3627], [4.0881, 4.0881, 1.3627], [4.0881, 1.3627000000000002, 4.0881], [1.3627000000000005, 4.0881, 4.0881], [0.0, 0.0, 0.0], [3e-16, 2.7254, 2.7254], [2.7254, 2e-16, 2.7254], [2.7254, 2.7254, 0.0]],
 "unique_id": "2273b04462e00f3adb1155bd24978419",
 "user": "jensj"},
"60": {
 "calculator": "aims",
 "cell": [[4.07419, 0.0, 0.0], [2.0370950000000003, 3.528352039844522, 0.0], [2.0370950000000003, 1.1761173466148407, 3.3265622050499313]],
 "ctime": 18.503494172685816,
 "energy": -114229.811338157,
 "free_energy": -114229.811502653,
 "initial_magmoms": [0.0, 0.0],
 "key_value_pairs": {"element": "Ge", "energy2": -114229.790352024, "ns": 1},
 "mtime": 19.124962052855356,
 "numbers": [32, 32],
 "pbc": [true, true, true],
 "positions": [[0.0, 0.0, 0.0], [2.0370950000000003, 1.1761173466148407, 0.8316405512624828]],
 "unique_id": "ac7d2c28f1d43739908646ee57568617",
 "user": "jensj"},
"61": {
 "calculator": "aims",
 "cell": [[4.1645, 0.0, 0.0], [-2.0822499999999993, 3.606562794060295, 0.0], [7e-16, 1.1e-15, 10.6991]],
 "ctime": 18.503494214982986,
 "energy": -725986.514746899,
 "free_energy": -725986.51445672,
 "key_value_pairs": {"element": "Ge", "energy2": -725986.540058272, "ns": 2},
 "mtime": 19.124962053464067,
 "numbers": [52, 52, 52, 32, 32, 32],
 "pbc": [true, true, true],
 "positions": [[0.0, 0.0, 0.0], [2.0822500002082256, 1.20218759789988, 3.5663666663100297], [-2.082239e-10, 2.4043751961604163, 7.132733333689969], [3e-16, 5e-16, 5.08421232], [2.082250000208226, 1.2021875978998804, 8.65057898631003], [-2.082242e-10, 2.4043751961604154, 1.5178456536899692]],
 "unique_id": "1747097a878a21f5312b828e46bdb16f",
 "user": "jensj"},
"62": {
 "calculator": "aims",
 "cell": [[3.82055, 0.0, 0.0], [-1.910274999999999, 3.308693356428637, 0.0], [7e-16, 1.1e-15, 10.78963]],
 "ctime": 18.503494163474915,
 "energy": -369134.356473994,
 "free_energy": -369134.356553343,
 "initial_magmoms": [0.0, 0.0, 0.0, 0.0, 0.0, 0.0],
 "key_value_pairs": {"element": "As", "energy2": -369134.274334505, "ns": 1},
 "mtime": 19.12496205403353,
 "numbers": [33, 33, 33, 33, 33, 33],
 "pbc": [true, true, true],
 "positions": [[1e-16, 3e-16, 2.4446064691], [5e-16, 9e-16, 8.3450235309], [1.9102941027500004, 1.1028867564983584, 6.041113837], [1.91029410275, 1.102886756498358, 1.1519008988], [-1.91027499986e-05, 2.2058065999302805, 9.637729101200001], [-1.91027499989e-05, 2.20580659993028, 4.748516163000001]],
 "unique_id": "920243d7913dd5c84820247a1f0826ff",
 "user": "jensj"},
"63": {
 "calculator": "aims",
 "cell": [[5.65, 0.0, 0.0], [3e-16, 5.65, 0.0], [3e-16, 3e-16, 5.65]],
 "ctime": 18.50349421556953,
 "energy": -457686.556410542,
 "free_energy": -457686.556543632,
 "key_value_pairs": {"element": "As", "energy2": -457686.652050311, "ns": 2},
 "mtime": 19.12496205462479,
 "numbers": [33, 33, 33, 33, 31, 31, 31, 31],
 "pbc": [true, true, true],
 "positions": [[1.4125, 1.4125, 1.4125], [4.237500000000001, 4.237500000000001, 1.4125], [4.237500000000001, 1.4125000000000003, 4.237500000000001], [1.4125000000000005, 4.237500000000001, 4.237500000000001], [0.0, 0.0, 0.0], [3e-16, 2.825, 2.825], [2.825, 2e-16, 2.825], [2.825, 2.825, 0.0]],
 "unique_id": "4e32b93a1a2c0afa911389f0cb261be0",
 "user": "jensj"},
"64": {
 "calculator": "aims",
 "cell": [[4.52464, 0.0, 0.0], [-2.262319999999999, 3.9184531829792224, 0.0], [3e-16, 5e-16, 5.04978]],
 "ctime": 18.50349419161643,
 "energy": -198372.025458899,
 "free_energy": -198372.02546256,
 "initial_magmoms": [0.0, 0.0, 0.0],
 "key_value_pairs": {"element": "Se", "energy2": -198371.991159995, "ns": 1},
 "mtime": 19.124962055169007,
 "numbers": [34, 34, 34],
 "pbc": [true, true, true],
 "positions": [[0.9910318992000001, 2e-16, 1.6832431674000001], [-0.4955159495999996, 0.8582588006679395, 3.3665368326], [1.7668040504000007, 3.0601943823112836, 0.0]],
 "unique_id": "c6bd680ef08e32e9cd98c8e8b4147b80",
 "user": "jensj"},
"65": {
 "calculator": "aims",
 "cell": [[4.3036, 0.0, 0.0], [-2.1517999999999993, 3.7270269277267105, 0.0], [4e-16, 7e-16, 7.0168]],
 "ctime": 18.503494216142766,
 "energy": -436713.824332607,
 "free_energy": -436713.824400057,
 "key_value_pairs": {"element": "Se", "energy2": -436713.901844443, "ns": 2},
 "mtime": 19.124962055761443,
 "numbers": [34, 34, 48, 48],
 "pbc": [true, true, true],
 "positions": [[-1.6e-15, 2.484684618484475, 0.0], [2.1518000000000024, 1.242342309242236, 3.5084], [-1.4e-15, 2.4846846184844753, 2.6734008], [2.151800000000003, 1.2423423092422363, 6.1818007999999995]],
 "unique_id": "2a3b2636321148ce1490fe76afa07ad5",
 "user": "jensj"},
"66": {
 "calculator": "aims",
 "cell": [[8.2286, 0.0, 0.0], [3e-16, 4.22731, 0.0], [6e-16, 6e-16, 9.03323]],
 "ctime": 18.50349416656872,
 "energy": -567386.69168233,
 "free_energy": -567386.691733654,
 "initial_magmoms": [0.0, 0.0, 0.0, 0.0, 0.0, 0.0, 0.0, 0.0],
 "key_value_pairs": {"element": "Br", "energy2": -567386.649112188, "ns": 1},
 "mtime": 19.124962056325078,
 "numbers": [35, 35, 35, 35, 35, 35, 35, 35],
 "pbc": [true, true, true],
 "positions": [[6e-16, 1.5883694594000006, 7.974896773199999], [2e-16, 0.5252855406000002, 3.4582817732], [6e-16, 3.7020244594000005, 5.5749482268], [2e-16, 2.6389405406, 1.0583332267999999], [4.114300000000001, 3.7020244594000005, 7.974896773199999], [4.1143, 2.6389405406, 3.4582817732], [4.1143, 1.5883694594000006, 5.5749482268], [4.1143, 0.5252855406000001, 1.0583332267999999]],
 "unique_id": "45eaa7631dfb0102dad58b03176c4e4d",
 "user": "jensj"},
"67": {
 "calculator": "aims",
 "cell": [[6.578, 0.0, 0.0], [4e-16, 6.578, 0.0], [4e-16, 4e-16, 6.578]],
 "ctime": 18.503494216705977,
 "energy": -349244.782171223,
 "free_energy": -349244.782171222,
 "key_value_pairs": {"element": "Br", "energy2": -349244.824040262, "ns": 2},
 "mtime": 19.12496205684408,
 "numbers": [35, 35, 35, 35, 19, 19, 19, 19],
 "pbc": [true, true, true],
 "positions": [[3.289, 3.289, 3.289], [3.289, 0.0, 0.0], [2e-16, 3.289, 0.0], [2e-16, 2e-16, 3.289], [0.0, 0.0, 0.0], [4e-16, 3.289, 3.289], [3.289, 2e-16, 3.289], [3.289, 3.289, 0.0]],
 "unique_id": "ebb707ee3e7c900492bcb1b942f2872c",
 "user": "jensj"},
"68": {
 "calculator": "aims",
 "cell": [[6.4293, 0.0, 0.0], [4e-16, 6.4293, 0.0], [4e-16, 4e-16, 6.4293]],
 "ctime": 18.503494177343597,
 "energy": -303697.514849024,
 "free_energy": -303697.514849024,
 "initial_magmoms": [0.0, 0.0, 0.0, 0.0],
 "key_value_pairs": {"element": "Kr", "energy2": -303697.513628712, "ns": 1},
 "mtime": 19.124962057423602,
 "numbers": [36, 36, 36, 36],
 "pbc": [true, true, true],
 "positions": [[0.0, 0.0, 0.0], [4e-16, 3.21465, 3.21465], [3.21465, 2e-16, 3.21465], [3.21465, 3.21465, 0.0]],
 "unique_id": "959297b75004091abc3cf1503e4c7c41",
 "user": "jensj"},
"69": {
 "calculator": "aims",
 "cell": [[5.67197, 0.0, 0.0], [3e-16, 5.67197, 0.0], [3e-16, 3e-16, 5.67197]],
 "ctime": 18.503494187216056,
 "energy": -162240.983479347,
 "free_energy": -162240.982715753,
 "initial_magmoms": [0.0, 0.0],
 "key_value_pairs": {"element": "Rb", "energy2": -162240.979129758, "ns": 1},
 "mtime": 19.124962057967224,
 "numbers": [37, 37],
 "pbc": [true, true, true],
 "positions": [[0.0, 0.0, 0.0], [2.835985, 2.835985, 2.835985]],
 "unique_id": "2537ef745f2483254bb497678d1fd42f",
 "user": "jensj"},
"70": {
 "calculator": "aims",
 "cell": [[6.5898, 0.0, 0.0], [4e-16, 6.5898, 0.0], [4e-16, 4e-16, 6.5898]],
 "ctime": 18.503494217264596,
 "energy": -374728.977139732,
 "free_energy": -374728.977139732,
 "key_value_pairs": {"element": "Rb", "energy2": -374729.010920213, "ns": 2},
 "mtime": 19.124962058523284,
 "numbers": [17, 17, 17, 17, 37, 37, 37, 37],
 "pbc": [true, true, true],
 "positions": [[3.2949, 3.2949, 3.2949], [3.2949, 0.0, 0.0], [2e-16, 3.2949, 0.0], [2e-16, 2e-16, 3.2949], [0.0, 0.0, 0.0], [4e-16, 3.2949, 3.2949], [3.2949, 2e-16, 3.2949], [3.2949, 3.2949, 0.0]],
 "unique_id": "ecb09990d081b8f3f82ea701370179af",
 "user": "jensj"},
"71": {
 "calculator": "aims",
 "cell": [[6.01969, 0.0, 0.0], [4e-16, 6.01969, 0.0], [4e-16, 4e-16, 6.01969]],
 "ctime": 18.503494193248073,
 "energy": -346067.300805834,
 "free_energy": -346067.291435284,
 "initial_magmoms": [0.0, 0.0, 0.0, 0.0],
 "key_value_pairs": {"element": "Sr", "energy2": -346067.282524587, "ns": 1},
 "mtime": 19.12496205904452,
 "numbers": [38, 38, 38, 38],
 "pbc": [true, true, true],
 "positions": [[0.0, 0.0, 0.0], [4e-16, 3.009845, 3.009845], [3.009845, 2e-16, 3.009845], [3.009845, 3.009845, 0.0]],
 "unique_id": "f16421ab18b22bf3b882915e9df1ac12",
 "user": "jensj"},
"72": {
 "calculator": "aims",
 "cell": [[5.226, 0.0, 0.0], [3e-16, 5.226, 0.0], [3e-16, 3e-16, 5.226]],
 "ctime": 18.503494217831253,
 "energy": -354272.669956051,
 "free_energy": -354272.669956049,
 "key_value_pairs": {"element": "Sr", "energy2": -354272.521211035, "ns": 2},
 "mtime": 19.124962059628718,
 "numbers": [8, 8, 8, 8, 38, 38, 38, 38],
 "pbc": [true, true, true],
 "positions": [[2.613, 2.613, 2.613], [2.613, 0.0, 0.0], [2e-16, 2.613, 0.0], [2e-16, 2e-16, 2.613], [0.0, 0.0, 0.0], [3e-16, 2.613, 2.613], [2.613, 2e-16, 2.613], [2.613, 2.613, 0.0]],
 "unique_id": "f93a660c31d44a3ab95fecd62fd30ae9",
 "user": "jensj"},
"73": {
 "calculator": "aims",
 "cell": [[3.66051, 0.0, 0.0], [1.8302550000000004, 3.170094650806975, 0.0], [3e-16, 2e-16, 5.67399]],
 "ctime": 18.503494198004223,
 "energy": -184233.720632378,
 "free_energy": -184233.720471953,
 "initial_magmoms": [0.0, 0.0],
 "key_value_pairs": {"element": "Y", "energy2": -184233.696327808, "ns": 1},
 "mtime": 19.124962060206876,
 "numbers": [39, 39],
 "pbc": [true, true, true],
 "positions": [[0.0, 0.0, 0.0], [1.8302366974500004, 1.0566876499534892, 2.836995]],
 "unique_id": "8246e13bf50ec0205c2e79973cfe91a6",
 "user": "jensj"},
"74": {
 "calculator": "aims",
 "cell": [[4.88, 0.0, 0.0], [3e-16, 4.88, 0.0], [3e-16, 3e-16, 4.88]],
 "ctime": 18.50349421840616,
 "energy": -374441.641291158,
 "free_energy": -374441.641932314,
 "key_value_pairs": {"element": "Y", "energy2": -374441.59501133, "ns": 2},
 "mtime": 19.124962060778383,
 "numbers": [7, 7, 7, 7, 39, 39, 39, 39],
 "pbc": [true, true, true],
 "positions": [[2.44, 2.44, 2.44], [2.44, 0.0, 0.0], [1e-16, 2.44, 0.0], [1e-16, 1e-16, 2.44], [0.0, 0.0, 0.0], [3e-16, 2.44, 2.44], [2.44, 1e-16, 2.44], [2.44, 2.44, 0.0]],
 "unique_id": "2d2bb7a7c9ebe4ca21fc6a3bc0fbce75",
 "user": "jensj"},
"75": {
 "calculator": "aims",
 "cell": [[3.23603, 0.0, 0.0], [1.6180150000000004, 2.802484187408557, 0.0], [3e-16, 2e-16, 5.18953]],
 "ctime": 18.50349419903648,
 "energy": -195848.986460962,
 "free_energy": -195848.982008819,
 "initial_magmoms": [0.0, 0.0],
 "key_value_pairs": {"element": "Zr", "energy2": -195848.944491877, "ns": 1},
 "mtime": 19.124962061371996,
 "numbers": [40, 40],
 "pbc": [true, true, true],
 "positions": [[0.0, 0.0, 0.0], [1.6179988198500004, 0.9341520541888945, 2.594765]],
 "unique_id": "e89ef33c98cd828399789e649cf4bb1d",
 "user": "jensj"},
"76": {
 "calculator": "aims",
 "cell": [[4.696, 0.0, 0.0], [3e-16, 4.696, 0.0], [3e-16, 3e-16, 4.696]],
 "ctime": 18.50349421897924,
 "energy": -395852.275217433,
 "free_energy": -395852.274396099,
 "key_value_pairs": {"element": "Zr", "energy2": -395852.164485871, "ns": 2},
 "mtime": 19.12496206190981,
 "numbers": [40, 40, 40, 40, 6, 6, 6, 6],
 "pbc": [true, true, true],
 "positions": [[2.348, 2.348, 2.348], [2.348, 0.0, 0.0], [1e-16, 2.348, 0.0], [1e-16, 1e-16, 2.348], [0.0, 0.0, 0.0], [3e-16, 2.348, 2.348], [2.348, 1e-16, 2.348], [2.348, 2.348, 0.0]],
 "unique_id": "6ac6361a56c33cf1b3ef92d8f209d1ab",
 "user": "jensj"},
"77": {
 "calculator": "aims",
 "cell": [[3.32239, 0.0, 0.0], [2e-16, 3.32239, 0.0], [2e-16, 2e-16, 3.32239]],
 "ctime": 18.503494181236032,
 "energy": -207885.854224173,
 "free_energy": -207885.858661598,
 "initial_magmoms": [0.0, 0.0],
 "key_value_pairs": {"element": "Nb", "energy2": -207885.786680799, "ns": 1},
 "mtime": 19.1249620624569,
 "numbers": [41, 41],
 "pbc": [true, true, true],
 "positions": [[0.0, 0.0, 0.0], [1.661195, 1.661195, 1.661195]],
 "unique_id": "785c3863d72199bf8a27ea22496052a2",
 "user": "jensj"},
"78": {
 "calculator": "aims",
 "cell": [[4.4544, 0.0, 0.0], [3e-16, 4.4544, 0.0], [3e-16, 3e-16, 4.4544]],
 "ctime": 18.50349421970296,
 "energy": -419923.477905322,
 "free_energy": -419923.475996843,
 "key_value_pairs": {"element": "Nb", "energy2": -419923.447619984, "ns": 2},
 "mtime": 19.12496206304051,
 "numbers": [6, 6, 6, 6, 41, 41, 41, 41],
 "pbc": [true, true, true],
 "positions": [[2.2272, 2.2272, 2.2272], [2.2272, 0.0, 0.0], [1e-16, 2.2272, 0.0], [1e-16, 1e-16, 2.2272], [0.0, 0.0, 0.0], [3e-16, 2.2272, 2.2272], [2.2272, 1e-16, 2.2272], [2.2272, 2.2272, 0.0]],
 "unique_id": "66b8b1021d054d8a66accb836e0ca19a",
 "user": "jensj"},
"79": {
 "calculator": "aims",
 "cell": [[3.1693, 0.0, 0.0], [2e-16, 3.1693, 0.0], [2e-16, 2e-16, 3.1693]],
 "ctime": 18.503494180073236,
 "energy": -220349.849283585,
 "free_energy": -220349.848004483,
 "initial_magmoms": [0.0, 0.0],
 "key_value_pairs": {"element": "Mo", "energy2": -220349.771443961, "ns": 1},
 "mtime": 19.124962063623908,
 "numbers": [42, 42],
 "pbc": [true, true, true],
 "positions": [[0.0, 0.0, 0.0], [1.58465, 1.58465, 1.58465]],
 "unique_id": "d64208c4bc88e6be7517418274242b16",
 "user": "jensj"},
"80": {
 "calculator": "aims",
 "cell": [[2.9, 0.0, 0.0], [-1.4499999999999993, 2.511473670974872, 0.0], [2e-16, 3e-16, 2.83]],
 "ctime": 18.50349422044049,
 "energy": -111212.026439335,
 "free_energy": -111212.026914504,
 "key_value_pairs": {"element": "Mo", "energy2": -111211.991217329, "ns": 2},
 "mtime": 19.124962064204823,
 "numbers": [6, 42],
 "pbc": [true, true, true],
 "positions": [[-1e-15, 1.6743157806499158, 1.415], [0.0, 0.0, 0.0]],
 "unique_id": "da88dc4374677c32527c9c284e72b364",
 "user": "jensj"},
"81": {
 "calculator": "aims",
 "cell": [[2.76187, 0.0, 0.0], [1.3809350000000002, 2.3918495819501273, 0.0], [3e-16, 2e-16, 4.41905]],
 "ctime": 18.50349419432859,
 "energy": -233246.486442954,
 "free_energy": -233246.488072298,
 "initial_magmoms": [0.0, 0.0],
 "key_value_pairs": {"element": "Tc", "energy2": -233246.395940965, "ns": 1},
 "mtime": 19.124962064807466,
 "numbers": [43, 43],
 "pbc": [true, true, true],
 "positions": [[0.0, 0.0, 0.0], [1.3809211906500003, 0.7972752211514361, 2.209525]],
 "unique_id": "9b3f607063ce837204407fe2ba75da6a",
 "user": "jensj"},
"82": {
 "calculator": "aims",
 "cell": [[5.4828, 0.0, 0.0], [3e-16, 4.7546, 0.0], [-2.5679982979780873, 5e-16, 4.885720519184621]],
 "ctime": 18.503494221239432,
 "energy": -482877.456324842,
 "free_energy": -482877.463430838,
 "key_value_pairs": {"element": "Tc", "energy2": -482877.350042522, "ns": 2},
 "mtime": 19.124962065392964,
 "numbers": [8, 8, 8, 8, 43, 43, 43, 43, 8, 8, 8, 8],
 "pbc": [true, true, true],
 "positions": [[-0.4809745443836442, 1.4820088200000001, 1.9967939761907545], [4.679775395394601, 3.85930882, 0.4460662834015559], [3.395776246405557, 3.2725911800000005, 2.888926542993866], [-1.764973693372688, 0.8952911800000005, 4.439654235783065], [0.7239087526514851, 0.0347085800000001, 1.3567645881775692], [3.4748920983594713, 2.4120085799999997, 1.0860956714147412], [2.1908929493704283, 4.71989142, 3.5289559310070513], [-0.5600903963375585, 2.3425914200000006, 3.7996248477698797], [2.362103324215294, 0.9913341000000002, 1.8492452165113789], [1.8366975267956624, 3.3686341, 0.5936150430809314], [0.5526983778066195, 3.7632659000000004, 3.0364753026732414], [1.0781041752262501, 1.3859659000000004, 4.292105476103689]],
 "unique_id": "1e2f50bb9b669cf86c4dc2e0504d237b",
 "user": "jensj"},
"83": {
 "calculator": "aims",
 "cell": [[2.72661, 0.0, 0.0], [1.3633050000000002, 2.361313526212688, 0.0], [3e-16, 2e-16, 4.3005]],
 "ctime": 18.50349418940215,
 "energy": -246583.869367323,
 "free_energy": -246583.869637646,
 "initial_magmoms": [0.0, 0.0],
 "key_value_pairs": {"element": "Ru", "energy2": -246583.79137711, "ns": 1},
 "mtime": 19.12496206595854,
 "numbers": [44, 44],
 "pbc": [true, true, true],
 "positions": [[0.0, 0.0, 0.0], [1.3632913669500002, 0.7870966376924755, 2.15025]],
 "unique_id": "b4afb2ef5a3551c90a61b4404552fad2",
 "user": "jensj"},
"84": {
 "calculator": "aims",
 "cell": [[4.491, 0.0, 0.0], [3e-16, 4.491, 0.0], [2e-16, 2e-16, 3.1064]],
 "ctime": 18.503494222275524,
 "energy": -254773.493855684,
 "free_energy": -254773.500272781,
 "key_value_pairs": {"element": "Ru", "energy2": -254773.456660631, "ns": 2},
 "mtime": 19.124962066493378,
 "numbers": [8, 8, 8, 8, 44, 44],
 "pbc": [true, true, true],
 "positions": [[1.36881189, 1.36881189, 0.0], [3.1221881099999997, 3.1221881099999997, 0.0], [0.8766881100000002, 3.6143118899999997, 1.5532], [3.6143118899999997, 0.87668811, 1.5532], [0.0, 0.0, 0.0], [2.2455, 2.2455, 1.5532]],
 "unique_id": "791ea1a04df6cba64387b1fa3818e9ba",
 "user": "jensj"},
"85": {
 "calculator": "aims",
 "cell": [[3.8421, 0.0, 0.0], [2e-16, 3.8421, 0.0], [2e-16, 2e-16, 3.8421]],
 "ctime": 18.503494188316758,
 "energy": -520735.460579643,
 "free_energy": -520735.456446701,
 "initial_magmoms": [0.0, 0.0, 0.0, 0.0],
 "key_value_pairs": {"element": "Rh", "energy2": -520735.311698081, "ns": 1},
 "mtime": 19.12496206704574,
 "numbers": [45, 45, 45, 45],
 "pbc": [true, true, true],
 "positions": [[0.0, 0.0, 0.0], [2e-16, 1.9210500000000001, 1.92105], [1.9210500000000001, 1e-16, 1.92105], [1.9210500000000001, 1.92105, 0.0]],
 "unique_id": "afd4e076abf07c89ab9a0584f8f938bb",
 "user": "jensj"},
"86": {
 "calculator": "aims",
 "cell": [[4.489, 0.0, 0.0], [3e-16, 4.489, 0.0], [2e-16, 2e-16, 3.09]],
 "ctime": 18.503494223413803,
 "energy": -268556.036054326,
 "free_energy": -268556.035022383,
 "key_value_pairs": {"element": "Rh", "energy2": -268556.027654323, "ns": 2},
 "mtime": 19.124962067636787,
 "numbers": [8, 8, 8, 8, 45, 45],
 "pbc": [true, true, true],
 "positions": [[1.378123, 1.378123, 0.0], [3.1108770000000003, 3.1108770000000003, 0.0], [0.8663770000000003, 3.6226229999999995, 1.545], [3.6226229999999995, 0.8663770000000001, 1.545], [0.0, 0.0, 0.0], [2.2445, 2.2445, 1.545]],
 "unique_id": "ab41ead04ce2454b397d0a0dba005106",
 "user": "jensj"},
"87": {
 "calculator": "aims",
 "cell": [[3.95315, 0.0, 0.0], [2e-16, 3.95315, 0.0], [2e-16, 2e-16, 3.95315]],
 "ctime": 18.503494185581904,
 "energy": -549212.37730988,
 "free_energy": -549212.395083678,
 "initial_magmoms": [0.0, 0.0, 0.0, 0.0],
 "key_value_pairs": {"element": "Pd", "energy2": -549212.274006703, "ns": 1},
 "mtime": 19.124962068266264,
 "numbers": [46, 46, 46, 46],
 "pbc": [true, true, true],
 "positions": [[0.0, 0.0, 0.0], [2e-16, 1.9765750000000002, 1.976575], [1.9765750000000002, 1e-16, 1.976575], [1.9765750000000002, 1.976575, 0.0]],
 "unique_id": "3a9682f1ee34150bdd38ce32e50b446a",
 "user": "jensj"},
"88": {
 "calculator": "aims",
 "cell": [[3.03, 0.0, 0.0], [2e-16, 3.03, 0.0], [3e-16, 3e-16, 5.33]],
 "ctime": 18.503494224493966,
 "energy": -278699.736714013,
 "free_energy": -278699.737869922,
 "key_value_pairs": {"element": "Pd", "energy2": -278699.811963613, "ns": 2},
 "mtime": 19.124962068867198,
 "numbers": [8, 8, 46, 46],
 "pbc": [true, true, true],
 "positions": [[1e-16, 1e-16, 1.3325], [2e-16, 2e-16, 3.9975], [1e-16, 1.515, 0.0], [1.5150000000000001, 2e-16, 2.665]],
 "unique_id": "c62d1966b7d964664d8fc1c3be9734e0",
 "user": "jensj"},
"89": {
 "calculator": "aims",
 "cell": [[4.16424, 0.0, 0.0], [3e-16, 4.16424, 0.0], [3e-16, 3e-16, 4.16424]],
 "ctime": 18.503494161946495,
 "energy": -578610.345468718,
 "free_energy": -578610.344925976,
 "initial_magmoms": [0.0, 0.0, 0.0, 0.0],
 "key_value_pairs": {"element": "Ag", "energy2": -578610.27772412, "ns": 1},
 "mtime": 19.124962069679032,
 "numbers": [47, 47, 47, 47],
 "pbc": [true, true, true],
 "positions": [[0.0, 0.0, 0.0], [3e-16, 2.08212, 2.08212], [2.08212, 1e-16, 2.08212], [2.08212, 2.08212, 0.0]],
 "unique_id": "3551fb772d8afc10ccdcc3805cf97e9a",
 "user": "jensj"},
"90": {
 "calculator": "aims",
 "cell": [[5.548, 0.0, 0.0], [3e-16, 5.548, 0.0], [3e-16, 3e-16, 5.548]],
 "ctime": 18.50349422562564,
 "energy": -628845.040289616,
 "free_energy": -628845.040401889,
 "key_value_pairs": {"element": "Ag", "energy2": -628845.064879391, "ns": 2},
 "mtime": 19.12496207026132,
 "numbers": [17, 17, 17, 17, 47, 47, 47, 47],
 "pbc": [true, true, true],
 "positions": [[2.774, 2.774, 2.774], [2.774, 0.0, 0.0], [2e-16, 2.774, 0.0], [2e-16, 2e-16, 2.774], [0.0, 0.0, 0.0], [3e-16, 2.774, 2.774], [2.774, 2e-16, 2.774], [2.774, 2.774, 0.0]],
 "unique_id": "3dcb0ecb0c17977819521a5ef12af81d",
 "user": "jensj"},
"91": {
 "calculator": "aims",
 "cell": [[3.03716, 0.0, 0.0], [1.5185800000000005, 2.6302577153579456, 0.0], [4e-16, 2e-16, 5.77061]],
 "ctime": 18.503494168108165,
 "energy": -304463.332588138,
 "free_energy": -304463.331781488,
 "initial_magmoms": [0.0, 0.0],
 "key_value_pairs": {"element": "Cd", "energy2": -304463.313976313, "ns": 1},
 "mtime": 19.12496207089681,
 "numbers": [48, 48],
 "pbc": [true, true, true],
 "positions": [[0.0, 0.0, 0.0], [1.5185648142000006, 0.8767438042602642, 2.885305]],
 "unique_id": "963a698d1acd959e8aa8e78f54b21103",
 "user": "jensj"},
"92": {
 "calculator": "aims",
 "cell": [[4.6946, 0.0, 0.0], [3e-16, 4.6946, 0.0], [3e-16, 3e-16, 4.6946]],
 "ctime": 18.50349422670825,
 "energy": -617118.234136163,
 "free_energy": -617118.237583186,
 "key_value_pairs": {"element": "Cd", "energy2": -617118.325680736, "ns": 2},
 "mtime": 19.124962071512275,
 "numbers": [8, 8, 8, 8, 48, 48, 48, 48],
 "pbc": [true, true, true],
 "positions": [[2.3473, 2.3473, 2.3473], [2.3473, 0.0, 0.0], [1e-16, 2.3473, 0.0], [1e-16, 1e-16, 2.3473], [0.0, 0.0, 0.0], [3e-16, 2.3473, 2.3473], [2.3473, 1e-16, 2.3473], [2.3473, 2.3473, 0.0]],
 "unique_id": "2a6f0589efd9ff4fccd599c1dfcfdb6a",
 "user": "jensj"},
"93": {
 "calculator": "aims",
 "cell": [[3.29841, 0.0, 0.0], [2e-16, 3.29841, 0.0], [3e-16, 3e-16, 5.06256]],
 "ctime": 18.50349417579169,
 "energy": -320084.11328791,
 "free_energy": -320084.11240099,
 "initial_magmoms": [0.0, 0.0],
 "key_value_pairs": {"element": "In", "energy2": -320084.094936456, "ns": 1},
 "mtime": 19.12496207209148,
 "numbers": [49, 49],
 "pbc": [true, true, true],
 "positions": [[0.0, 0.0, 0.0], [1.6492050000000003, 1.6492050000000003, 2.53128]],
 "unique_id": "f5359e3127acfb5fb6815c1491b578ac",
 "user": "jensj"},
"94": {
 "calculator": "aims",
 "cell": [[5.8687, 0.0, 0.0], [4e-16, 5.8687, 0.0], [4e-16, 4e-16, 5.8687]],
 "ctime": 18.503494227835397,
 "energy": -677405.451095507,
 "free_energy": -677405.451191692,
 "key_value_pairs": {"element": "In", "energy2": -677405.536244215, "ns": 2},
 "mtime": 19.12496207273706,
 "numbers": [15, 15, 15, 15, 49, 49, 49, 49],
 "pbc": [true, true, true],
 "positions": [[1.467175, 1.467175, 1.467175], [4.4015249999999995, 4.4015249999999995, 1.467175], [4.4015249999999995, 1.4671750000000001, 4.4015249999999995], [1.4671750000000003, 4.4015249999999995, 4.4015249999999995], [0.0, 0.0, 0.0], [4e-16, 2.93435, 2.93435], [2.93435, 2e-16, 2.93435], [2.93435, 2.93435, 0.0]],
 "unique_id": "f9a9903ecf9f371ec5877f5e852c0239",
 "user": "jensj"},
"95": {
 "calculator": "aims",
 "cell": [[4.70647, 0.0, 0.0], [2.3532350000000006, 4.075922582149347, 0.0], [2.3532350000000006, 1.3586408607164493, 3.8428166632389145]],
 "ctime": 18.50349419270035,
 "energy": -336170.957377682,
 "free_energy": -336170.957613144,
 "initial_magmoms": [0.0, 0.0],
 "key_value_pairs": {"element": "Sn", "energy2": -336170.937216919, "ns": 1},
 "mtime": 19.124962073345525,
 "numbers": [50, 50],
 "pbc": [true, true, true],
 "positions": [[0.0, 0.0, 0.0], [2.3532350000000006, 1.358640860716449, 0.9607041658097286]],
 "unique_id": "4ef38ee4be3bbf0bfc2256063857c9f9",
 "user": "jensj"},
"96": {
 "calculator": "aims",
 "cell": [[11.143, 0.0, 0.0], [2e-16, 3.971, 0.0], [3e-16, 3e-16, 4.336]],
 "ctime": 18.5034942287466,
 "energy": -715795.499936233,
 "free_energy": -715795.499957334,
 "key_value_pairs": {"element": "Sn", "energy2": -715795.578359076, "ns": 2},
 "mtime": 19.12496207394352,
 "numbers": [50, 50, 50, 50, 16, 16, 16, 16],
 "pbc": [true, true, true],
 "positions": [[1.3304742, 0.9927500000000001, 1.6481136], [4.2410258, 2.9782500000000005, 3.8161136000000004], [9.812525800000001, 2.97825, 2.6878864], [6.9019742, 0.99275, 0.5198864000000001], [3.9123073000000006, 0.9927500000000001, 2.0756432], [1.6591927000000002, 2.9782500000000005, 4.2436432], [7.2306927000000005, 2.97825, 2.2603568000000003], [9.4838073, 0.99275, 0.0923567999999999]],
 "unique_id": "41d1318bc63386f71cd6ccca3a2439f1",
 "user": "jensj"},
"97": {
 "calculator": "aims",
 "cell": [[4.38047, 0.0, 0.0], [-2.190234999999999, 3.79359830051562, 0.0], [7e-16, 1.2e-15, 11.47804]],
 "ctime": 18.50349418995887,
 "energy": -1058184.82755157,
 "free_energy": -1058184.82583902,
 "initial_magmoms": [0.0, 0.0, 0.0, 0.0, 0.0, 0.0],
 "key_value_pairs": {"element": "Sb", "energy2": -1058184.75061955, "ns": 1},
 "mtime": 19.124962074558304,
 "numbers": [51, 51, 51, 51, 51, 51],
 "pbc": [true, true, true],
 "positions": [[2e-16, 3e-16, 2.6780562928], [5e-16, 9e-16, 8.799983707200001], [2.1902569023500007, 1.2645201215108723, 6.504146146400001], [2.1902569023500003, 1.264520121510872, 1.1479187804], [-2.19023499986e-05, 2.5290781790047494, 10.330121219599999], [-2.19023499989e-05, 2.529078179004749, 4.9738938536]],
 "unique_id": "559568bcc4c5ce8eaa00d9788019bff4",
 "user": "jensj"},
"98": {
 "calculator": "aims",
 "cell": [[6.4794, 0.0, 0.0], [4e-16, 6.4794, 0.0], [4e-16, 4e-16, 6.4794]],
 "ctime": 18.503494229314022,
 "energy": -1345625.6439848,
 "free_energy": -1345625.64451142,
 "key_value_pairs": {"element": "Sb", "energy2": -1345625.80546497, "ns": 2},
 "mtime": 19.124962075197782,
 "numbers": [51, 51, 51, 51, 49, 49, 49, 49],
 "pbc": [true, true, true],
 "positions": [[1.61985, 1.61985, 1.61985], [4.8595500000000005, 4.8595500000000005, 1.61985], [4.8595500000000005, 1.6198500000000002, 4.8595500000000005], [1.6198500000000005, 4.8595500000000005, 4.8595500000000005], [0.0, 0.0, 0.0], [4e-16, 3.2397, 3.2397], [3.2397, 2e-16, 3.2397], [3.2397, 3.2397, 0.0]],
 "unique_id": "4232a0870ed75888ad733a01190690fc",
 "user": "jensj"},
"99": {
 "calculator": "aims",
 "cell": [[4.50788, 0.0, 0.0], [-2.253939999999999, 3.9039385972117957, 0.0], [4e-16, 6e-16, 5.96346]],
 "ctime": 18.503494194877685,
 "energy": -554641.287244555,
 "free_energy": -554641.287004868,
 "initial_magmoms": [0.0, 0.0, 0.0],
 "key_value_pairs": {"element": "Te", "energy2": -554641.252859483, "ns": 1},
 "mtime": 19.124962075841637,
 "numbers": [52, 52, 52],
 "pbc": [true, true, true],
 "positions": [[1.2155949208000003, 2e-16, 1.9878001218000003], [-0.6077974603999996, 1.0527360821241334, 3.9756598782], [1.6461425396000007, 2.851202515087663, 0.0]],
 "unique_id": "161ab3f7ae0f56dfac2e96e45c582a69",
 "user": "jensj"},
"100": {
 "calculator": "aims",
 "cell": [[6.073, 0.0, 0.0], [4e-16, 6.073, 0.0], [4e-16, 4e-16, 6.073]],
 "ctime": 18.503494229883994,
 "energy": -935012.757770139,
 "free_energy": -935012.757774311,
 "key_value_pairs": {"element": "Te", "energy2": -935012.849317147, "ns": 2},
 "mtime": 19.124962076459955,
 "numbers": [52, 52, 52, 52, 30, 30, 30, 30],
 "pbc": [true, true, true],
 "positions": [[1.51825, 1.51825, 1.51825], [4.55475, 4.55475, 1.51825], [4.55475, 1.5182500000000003, 4.55475], [1.5182500000000005, 4.55475, 4.55475], [0.0, 0.0, 0.0], [4e-16, 3.0365, 3.0365], [3.0365, 2e-16, 3.0365], [3.0365, 3.0365, 0.0]],
 "unique_id": "764669a960c6e085aefdede70ed12c1a",
 "user": "jensj"},
"101": {
 "calculator": "aims",
 "cell": [[8.57701, 0.0, 0.0], [3e-16, 4.55422, 0.0], [6e-16, 6e-16, 10.18381]],
 "ctime": 18.503494175276156,
 "energy": -1549102.36303096,
 "free_energy": -1549102.36327503,
 "initial_magmoms": [0.0, 0.0, 0.0, 0.0, 0.0, 0.0, 0.0, 0.0],
 "key_value_pairs": {"element": "I", "energy2": -1549102.33021368, "ns": 1},
 "mtime": 19.124962077052345,
 "numbers": [53, 53, 53, 53, 53, 53, 53, 53],
 "pbc": [true, true, true],
 "positions": [[6e-16, 1.6581915020000004, 8.947189951699999], [3e-16, 0.6189184980000002, 3.8552849517], [6e-16, 3.935301502, 6.3285250483], [3e-16, 2.896028498, 1.2366200482999998], [4.288505000000001, 3.935301502, 8.947189951699999], [4.288505, 2.8960284980000006, 3.8552849517], [4.288505, 1.6581915020000004, 6.3285250483], [4.288505, 0.6189184980000001, 1.2366200482999998]],
 "unique_id": "bccaa84ab337b9bd2f82204bc58413c6",
 "user": "jensj"},
"102": {
 "calculator": "aims",
 "cell": [[6.06, 0.0, 0.0], [4e-16, 6.06, 0.0], [4e-16, 4e-16, 6.06]],
 "ctime": 18.50349423046256,
 "energy": -775379.586691498,
 "free_energy": -775379.5866915,
 "key_value_pairs": {"element": "I", "energy2": -775379.52577138, "ns": 2},
 "mtime": 19.12496207774014,
 "numbers": [3, 3, 3, 3, 53, 53, 53, 53],
 "pbc": [true, true, true],
 "positions": [[3.03, 3.03, 3.03], [3.03, 0.0, 0.0], [2e-16, 3.03, 0.0], [2e-16, 2e-16, 3.03], [0.0, 0.0, 0.0], [4e-16, 3.03, 3.03], [3.03, 2e-16, 3.03], [3.03, 3.03, 0.0]],
 "unique_id": "196fa89d5e91f01998ffeb5cac54345e",
 "user": "jensj"},
"103": {
 "calculator": "aims",
 "cell": [[7.05482, 0.0, 0.0], [4e-16, 7.05482, 0.0], [4e-16, 4e-16, 7.05482]],
 "ctime": 18.503494197499357,
 "energy": -810561.634099263,
 "free_energy": -810561.634099263,
 "initial_magmoms": [0.0, 0.0, 0.0, 0.0],
 "key_value_pairs": {"element": "Xe", "energy2": -810561.631484149, "ns": 1},
 "mtime": 19.124962078381518,
 "numbers": [54, 54, 54, 54],
 "pbc": [true, true, true],
 "positions": [[0.0, 0.0, 0.0], [4e-16, 3.52741, 3.52741], [3.52741, 2e-16, 3.52741], [3.52741, 3.52741, 0.0]],
 "unique_id": "52d1ddd85cfd9975778bbd6fa703acd4",
 "user": "jensj"},
"104": {
 "calculator": "aims",
 "cell": [[6.16153, 0.0, 0.0], [4e-16, 6.16153, 0.0], [4e-16, 4e-16, 6.16153]],
 "ctime": 18.503494170119133,
 "energy": -423763.181078961,
 "free_energy": -423763.179423656,
 "initial_magmoms": [0.0, 0.0],
 "key_value_pairs": {"element": "Cs", "energy2": -423763.177372222, "ns": 1},
 "mtime": 19.124962079025057,
 "numbers": [55, 55],
 "pbc": [true, true, true],
 "positions": [[0.0, 0.0, 0.0], [3.080765, 3.080765, 3.080765]],
 "unique_id": "cd16530736dece244aaf84a696206abe",
 "user": "jensj"},
"105": {
 "calculator": "aims",
 "cell": [[4.12, 0.0, 0.0], [3e-16, 4.12, 0.0], [3e-16, 3e-16, 4.12]],
 "ctime": 18.503494231066757,
 "energy": -224443.306255412,
 "free_energy": -224443.306255411,
 "key_value_pairs": {"element": "Cs", "energy2": -224443.318527135, "ns": 2},
 "mtime": 19.12496207970889,
 "numbers": [17, 55],
 "pbc": [true, true, true],
 "positions": [[2.06, 2.06, 2.06], [0.0, 0.0, 0.0]],
 "unique_id": "9c84855f337a3ab3be8307646f9e8e14",
 "user": "jensj"},
"106": {
 "calculator": "aims",
 "cell": [[5.02792, 0.0, 0.0], [3e-16, 5.02792, 0.0], [3e-16, 3e-16, 5.02792]],
 "ctime": 18.503494164499436,
 "energy": -442737.080429717,
 "free_energy": -442737.083172728,
 "initial_magmoms": [0.0, 0.0],
 "key_value_pairs": {"element": "Ba", "energy2": -442737.067933505, "ns": 1},
 "mtime": 19.124962080416775,
 "numbers": [56, 56],
 "pbc": [true, true, true],
 "positions": [[0.0, 0.0, 0.0], [2.51396, 2.51396, 2.51396]],
 "unique_id": "b6270fba866c87b89ab31c6b567e6b3c",
 "user": "jensj"},
"107": {
 "calculator": "aims",
 "cell": [[5.25, 0.0, 0.0], [3e-16, 5.25, 0.0], [3e-16, 3e-16, 5.25]],
 "ctime": 18.503494231628988,
 "energy": -893676.572758622,
 "free_energy": -893676.574381357,
 "key_value_pairs": {"element": "Ba", "energy2": -893676.910932727, "ns": 2},
 "mtime": 19.1249620810681,
 "numbers": [8, 8, 8, 8, 56, 56, 56, 56],
 "pbc": [true, true, true],
 "positions": [[2.625, 2.625, 2.625], [2.625, 0.0, 0.0], [2e-16, 2.625, 0.0], [2e-16, 2e-16, 2.625], [0.0, 0.0, 0.0], [3e-16, 2.625, 2.625], [2.625, 2e-16, 2.625], [2.625, 2.625, 0.0]],
 "unique_id": "deb4d1fc927395f246be01c360279b01",
 "user": "jensj"},
"108": {
 "calculator": "aims",
 "cell": [[3.52388, 0.0, 0.0], [1.7619400000000005, 3.0517695998879075, 0.0], [3e-16, 2e-16, 5.48025]],
 "ctime": 18.503494178445628,
 "energy": -792514.995951001,
 "free_energy": -792514.995837275,
 "initial_magmoms": [0.0, 0.0],
 "key_value_pairs": {"element": "Lu", "energy2": -792514.959377592, "ns": 1},
 "mtime": 19.124962082618424,
 "numbers": [71, 71],
 "pbc": [true, true, true],
 "positions": [[0.0, 0.0, 0.0], [1.7619223806000004, 1.0172463607306363, 2.740125]],
 "unique_id": "624869a2f922f9076b05ecb4e7f41af1",
 "user": "jensj"},
"109": {
 "calculator": "aims",
 "cell": [[4.7599, 0.0, 0.0], [3e-16, 4.7599, 0.0], [3e-16, 3e-16, 4.7599]],
 "ctime": 18.503494241410372,
 "energy": -1591004.27234049,
 "free_energy": -1591004.33974112,
 "key_value_pairs": {"element": "Lu", "energy2": -1591004.53592902, "ns": 2},
 "mtime": 19.12496208326703,
 "numbers": [7, 7, 7, 7, 71, 71, 71, 71],
 "pbc": [true, true, true],
 "positions": [[2.37995, 2.37995, 2.37995], [2.37995, 0.0, 0.0], [1e-16, 2.37995, 0.0], [1e-16, 1e-16, 2.37995], [0.0, 0.0, 0.0], [3e-16, 2.37995, 2.37995], [2.37995, 1e-16, 2.37995], [2.37995, 2.37995, 0.0]],
 "unique_id": "1446d56f66f0ca9d8228c411010a3412",
 "user": "jensj"},
"110": {
 "calculator": "aims",
 "cell": [[3.20273, 0.0, 0.0], [1.6013650000000004, 2.773645541462535, 0.0], [3e-16, 2e-16, 5.06493]],
 "ctime": 18.503494174199346,
 "energy": -820536.882196639,
 "free_energy": -820536.879305754,
 "initial_magmoms": [0.0, 0.0],
 "key_value_pairs": {"element": "Hf", "energy2": -820536.843792106, "ns": 1},
 "mtime": 19.124962083976794,
 "numbers": [72, 72],
 "pbc": [true, true, true],
 "positions": [[0.0, 0.0, 0.0], [1.6013489863500003, 0.9245392683357069, 2.532465]],
 "unique_id": "3cc577989ebc8711e81bbb41cf51b523",
 "user": "jensj"},
"111": {
 "calculator": "aims",
 "cell": [[4.633, 0.0, 0.0], [3e-16, 4.633, 0.0], [3e-16, 3e-16, 4.633]],
 "ctime": 18.503494242132646,
 "energy": -1645228.5560602,
 "free_energy": -1645228.5552709,
 "key_value_pairs": {"element": "Hf", "energy2": -1645228.47245529, "ns": 2},
 "mtime": 19.124962084680675,
 "numbers": [6, 6, 6, 6, 72, 72, 72, 72],
 "pbc": [true, true, true],
 "positions": [[2.3165, 2.3165, 2.3165], [2.3165, 0.0, 0.0], [1e-16, 2.3165, 0.0], [1e-16, 1e-16, 2.3165], [0.0, 0.0, 0.0], [3e-16, 2.3165, 2.3165], [2.3165, 1e-16, 2.3165], [2.3165, 2.3165, 0.0]],
 "unique_id": "12f494edeb75cacf0d91e0c9821d5977",
 "user": "jensj"},
"112": {
 "calculator": "aims",
 "cell": [[3.32169, 0.0, 0.0], [2e-16, 3.32169, 0.0], [2e-16, 2e-16, 3.32169]],
 "ctime": 18.50349419378961,
 "energy": -849181.834975843,
 "free_energy": -849181.838359832,
 "initial_magmoms": [0.0, 0.0],
 "key_value_pairs": {"element": "Ta", "energy2": -849181.774452548, "ns": 1},
 "mtime": 19.124962085398536,
 "numbers": [73, 73],
 "pbc": [true, true, true],
 "positions": [[0.0, 0.0, 0.0], [1.660845, 1.660845, 1.660845]],
 "unique_id": "908fa57792116a1018da0a6368dc1d8a",
 "user": "jensj"},
"113": {
 "calculator": "aims",
 "cell": [[4.453, 0.0, 0.0], [3e-16, 4.453, 0.0], [3e-16, 3e-16, 4.453]],
 "ctime": 18.503494242886163,
 "energy": -1702515.85525105,
 "free_energy": -1702515.85637684,
 "key_value_pairs": {"element": "Ta", "energy2": -1702515.77514064, "ns": 2},
 "mtime": 19.124962086081677,
 "numbers": [6, 6, 6, 6, 73, 73, 73, 73],
 "pbc": [true, true, true],
 "positions": [[2.2265, 2.2265, 2.2265], [2.2265, 0.0, 0.0], [1e-16, 2.2265, 0.0], [1e-16, 1e-16, 2.2265], [0.0, 0.0, 0.0], [3e-16, 2.2265, 2.2265], [2.2265, 1e-16, 2.2265], [2.2265, 2.2265, 0.0]],
 "unique_id": "5c708c66e0c6cf86383aa6af83442a0a",
 "user": "jensj"},
"114": {
 "calculator": "aims",
 "cell": [[3.18968, 0.0, 0.0], [2e-16, 3.18968, 0.0], [2e-16, 2e-16, 3.18968]],
 "ctime": 18.503494196987088,
 "energy": -878457.072076476,
 "free_energy": -878457.070577607,
 "initial_magmoms": [0.0, 0.0],
 "key_value_pairs": {"element": "W", "energy2": -878456.985756909, "ns": 1},
 "mtime": 19.124962086783473,
 "numbers": [74, 74],
 "pbc": [true, true, true],
 "positions": [[0.0, 0.0, 0.0], [1.59484, 1.59484, 1.59484]],
 "unique_id": "914595b4ee68017391f4639d8b86bb19",
 "user": "jensj"},
"115": {
 "calculator": "aims",
 "cell": [[2.8889, 0.0, 0.0], [-1.4444499999999993, 2.501860788992865, 0.0], [2e-16, 3e-16, 2.8414]],
 "ctime": 18.503494243491645,
 "energy": -440265.671719599,
 "free_energy": -440265.672247661,
 "key_value_pairs": {"element": "W", "energy2": -440265.670505155, "ns": 2},
 "mtime": 19.124962087568985,
 "numbers": [6, 74],
 "pbc": [true, true, true],
 "positions": [[-9e-16, 1.667907192661911, 1.4207], [0.0, 0.0, 0.0]],
 "unique_id": "19f730da37384eef39d7cbc9605b5ee2",
 "user": "jensj"},
"116": {
 "calculator": "aims",
 "cell": [[2.77447, 0.0, 0.0], [1.3872350000000002, 2.4027615020378112, 0.0], [3e-16, 2e-16, 4.47993]],
 "ctime": 18.503494187776344,
 "energy": -908368.776568153,
 "free_energy": -908368.777964525,
 "initial_magmoms": [0.0, 0.0],
 "key_value_pairs": {"element": "Re", "energy2": -908368.699804138, "ns": 1},
 "mtime": 19.124962088256947,
 "numbers": [75, 75],
 "pbc": [true, true, true],
 "positions": [[0.0, 0.0, 0.0], [1.3872211276500004, 0.8009124914742638, 2.239965]],
 "unique_id": "28030de0854b9b5e12881d203aa06392",
 "user": "jensj"},
"117": {
 "calculator": "aims",
 "cell": [[3.7492, 0.0, 0.0], [2e-16, 3.7492, 0.0], [2e-16, 2e-16, 3.7492]],
 "ctime": 18.503494244070072,
 "energy": -460328.714440719,
 "free_energy": -460328.714035476,
 "key_value_pairs": {"element": "Re", "energy2": -460328.70418876, "ns": 2},
 "mtime": 19.124962088957076,
 "numbers": [8, 8, 8, 75],
 "pbc": [true, true, true],
 "positions": [[1.8746, 0.0, 0.0], [1e-16, 1.8746, 0.0], [1e-16, 1e-16, 1.8746], [0.0, 0.0, 0.0]],
 "unique_id": "27483fb39803a31322a4401da90d3614",
 "user": "jensj"},
"118": {
 "calculator": "aims",
 "cell": [[2.75895, 0.0, 0.0], [1.3794750000000002, 2.389320787771077, 0.0], [3e-16, 2e-16, 4.35694]],
 "ctime": 18.503494183960097,
 "energy": -938927.16319741,
 "free_energy": -938927.163956055,
 "initial_magmoms": [0.0, 0.0],
 "key_value_pairs": {"element": "Os", "energy2": -938927.06158901, "ns": 1},
 "mtime": 19.124962089704557,
 "numbers": [76, 76],
 "pbc": [true, true, true],
 "positions": [[0.0, 0.0, 0.0], [1.3794612052500004, 0.7964322981877332, 2.17847]],
 "unique_id": "36af4cc597beb7a9967c7e8c9fde7e90",
 "user": "jensj"},
"119": {
 "calculator": "aims",
 "cell": [[2.8767, 0.0, 0.0], [-1.4383499999999994, 2.4912952790666947, 0.0], [2e-16, 3e-16, 2.8718]],
 "ctime": 18.503494244655265,
 "energy": -470140.235726952,
 "free_energy": -470140.235923113,
 "key_value_pairs": {"element": "Os", "energy2": -470140.211224702, "ns": 2},
 "mtime": 19.124962090416474,
 "numbers": [5, 76],
 "pbc": [true, true, true],
 "positions": [[-9e-16, 1.6608635193777974, 1.4359], [0.0, 0.0, 0.0]],
 "unique_id": "62f0fad9db73eb53dfb54ded50e06c67",
 "user": "jensj"},
"120": {
 "calculator": "aims",
 "cell": [[3.87675, 0.0, 0.0], [2e-16, 3.87675, 0.0], [2e-16, 2e-16, 3.87675]],
 "ctime": 18.503494176322672,
 "energy": -1940279.34339236,
 "free_energy": -1940279.34280764,
 "initial_magmoms": [0.0, 0.0, 0.0, 0.0],
 "key_value_pairs": {"element": "Ir", "energy2": -1940279.16262533, "ns": 1},
 "mtime": 19.124962091160388,
 "numbers": [77, 77, 77, 77],
 "pbc": [true, true, true],
 "positions": [[0.0, 0.0, 0.0], [2e-16, 1.9383750000000002, 1.938375], [1.9383750000000002, 1e-16, 1.938375], [1.9383750000000002, 1.938375, 0.0]],
 "unique_id": "caeb01325944f168a00734f06a28b475",
 "user": "jensj"},
"121": {
 "calculator": "aims",
 "cell": [[4.5051, 0.0, 0.0], [3e-16, 4.5051, 0.0], [2e-16, 2e-16, 3.1586]],
 "ctime": 18.503494245261585,
 "energy": -978327.931982341,
 "free_energy": -978327.931478048,
 "key_value_pairs": {"element": "Ir", "energy2": -978327.898226445, "ns": 2},
 "mtime": 19.124962091858013,
 "numbers": [8, 8, 8, 8, 77, 77],
 "pbc": [true, true, true],
 "positions": [[1.3862192699999998, 1.3862192699999998, 0.0], [3.11888073, 3.11888073, 0.0], [0.8663307300000004, 3.6387692699999996, 1.5793], [3.6387692699999996, 0.8663307300000002, 1.5793], [0.0, 0.0, 0.0], [2.25255, 2.25255, 1.5793]],
 "unique_id": "b75ae7590eea69038be2d384323ec757",
 "user": "jensj"},
"122": {
 "calculator": "aims",
 "cell": [[3.97675, 0.0, 0.0], [2e-16, 3.97675, 0.0], [2e-16, 2e-16, 3.97675]],
 "ctime": 18.503494186657424,
 "energy": -2004033.6699234,
 "free_energy": -2004033.67643411,
 "initial_magmoms": [0.0, 0.0, 0.0, 0.0],
 "key_value_pairs": {"element": "Pt", "energy2": -2004033.52911903, "ns": 1},
 "mtime": 19.12496209253249,
 "numbers": [78, 78, 78, 78],
 "pbc": [true, true, true],
 "positions": [[0.0, 0.0, 0.0], [2e-16, 1.9883750000000002, 1.988375], [1.9883750000000002, 1e-16, 1.988375], [1.9883750000000002, 1.988375, 0.0]],
 "unique_id": "a09402c0f63d5f111ca2e8ca44031bba",
 "user": "jensj"},
"123": {
 "calculator": "aims",
 "cell": [[3.04, 0.0, 0.0], [2e-16, 3.04, 0.0], [3e-16, 3e-16, 5.34]],
 "ctime": 18.503494245882955,
 "energy": -1006109.45316314,
 "free_energy": -1006109.45330495,
 "key_value_pairs": {"element": "Pt", "energy2": -1006109.58985414, "ns": 2},
 "mtime": 19.124962093245273,
 "numbers": [8, 8, 78, 78],
 "pbc": [true, true, true],
 "positions": [[1e-16, 1e-16, 1.335], [2e-16, 2e-16, 4.005], [1e-16, 1.52, 0.0], [1.5200000000000002, 2e-16, 2.67]],
 "unique_id": "2c1c0bea8c649280885f0db19f7b49bd",
 "user": "jensj"},
"124": {
 "calculator": "aims",
 "cell": [[4.1741, 0.0, 0.0], [3e-16, 4.1741, 0.0], [3e-16, 3e-16, 4.1741]],
 "ctime": 18.50349416398164,
 "energy": -2069136.84310587,
 "free_energy": -2069136.84293212,
 "initial_magmoms": [0.0, 0.0, 0.0, 0.0],
 "key_value_pairs": {"element": "Au", "energy2": -2069136.74063822, "ns": 1},
 "mtime": 19.124962093947016,
 "numbers": [79, 79, 79, 79],
 "pbc": [true, true, true],
 "positions": [[0.0, 0.0, 0.0], [3e-16, 2.08705, 2.08705], [2.08705, 1e-16, 2.08705], [2.08705, 2.08705, 0.0]],
 "unique_id": "471ae1d009064339c20b6aaf48b3a212",
 "user": "jensj"},
"125": {
 "calculator": "aims",
 "cell": [[5.02, 0.0, 0.0], [3e-16, 5.02, 0.0], [3e-16, 3e-16, 5.02]],
 "ctime": 18.503494246515462,
 "energy": -2090861.15516745,
 "free_energy": -2090861.15517299,
 "key_value_pairs": {"element": "Au", "energy2": -2090861.77690313, "ns": 2},
 "mtime": 19.12496209466763,
 "numbers": [79, 79, 79, 79, 16, 16],
 "pbc": [true, true, true],
 "positions": [[1.255, 1.255, 1.255], [3.765, 3.7649999999999997, 1.255], [3.765, 1.2550000000000001, 3.7649999999999997], [1.2550000000000003, 3.765, 3.7649999999999997], [0.0, 0.0, 0.0], [2.51, 2.51, 2.51]],
 "unique_id": "20b14aa147ec1d8f4cada5ed475d1240",
 "user": "jensj"},
"126": {
 "calculator": "aims",
 "cell": [[4.10305, 0.0, 0.0], [3e-16, 4.10305, 0.0], [2e-16, 2e-16, 3.54831]],
 "ctime": 18.50349417474592,
 "energy": -1067798.70438191,
 "free_energy": -1067798.70471229,
 "initial_magmoms": [0.0, 0.0],
 "key_value_pairs": {"element": "Hg", "energy2": -1067798.69756249, "ns": 1},
 "mtime": 19.1249620954126,
 "numbers": [80, 80],
 "pbc": [true, true, true],
 "positions": [[0.0, 0.0, 0.0], [2.051525, 2.051525, 1.774155]],
 "unique_id": "4155bc2ed3930818de50440840cab18a",
 "user": "jensj"},
"127": {
 "calculator": "aims",
 "cell": [[5.54, 0.0, 0.0], [3e-16, 5.54, 0.0], [3e-16, 3e-16, 5.54]],
 "ctime": 18.503494247111757,
 "energy": -2157341.89299971,
 "free_energy": -2157341.89328965,
 "key_value_pairs": {"element": "Hg", "energy2": -2157342.0539873, "ns": 2},
 "mtime": 19.124962096184724,
 "numbers": [9, 9, 9, 9, 9, 9, 9, 9, 80, 80, 80, 80],
 "pbc": [true, true, true],
 "positions": [[1.385, 1.385, 1.385], [4.155, 4.155, 1.385], [4.155, 1.3850000000000002, 4.155], [1.3850000000000005, 4.155, 4.155], [1.3850000000000002, 1.3850000000000002, 4.155], [4.155, 4.155, 4.155], [1.3850000000000002, 4.155, 1.385], [4.155, 1.385, 1.385], [0.0, 0.0, 0.0], [3e-16, 2.77, 2.77], [2.77, 2e-16, 2.77], [2.77, 2.77, 0.0]],
 "unique_id": "28e356467978e8325ab8a4803c963f9f",
 "user": "jensj"},
"128": {
 "calculator": "aims",
 "cell": [[3.59255, 0.0, 0.0], [1.7962750000000005, 3.111239564365785, 0.0], [3e-16, 2e-16, 5.64195]],
 "ctime": 18.503494195938647,
 "energy": -1101713.19802529,
 "free_energy": -1101713.19852459,
 "initial_magmoms": [0.0, 0.0],
 "key_value_pairs": {"element": "Tl", "energy2": -1101713.18181537, "ns": 1},
 "mtime": 19.124962096954988,
 "numbers": [81, 81],
 "pbc": [true, true, true],
 "positions": [[0.0, 0.0, 0.0], [1.7962570372500004, 1.0370694839900472, 2.820975]],
 "unique_id": "c571e73afea178fa883903f99965bdb2",
 "user": "jensj"},
"129": {
 "calculator": "aims",
 "cell": [[3.8416, 0.0, 0.0], [2e-16, 3.8416, 0.0], [2e-16, 2e-16, 3.8416]],
 "ctime": 18.50349424794582,
 "energy": -563416.392409355,
 "free_energy": -563416.392409388,
 "key_value_pairs": {"element": "Tl", "energy2": -563416.401783798, "ns": 2},
 "mtime": 19.12496209767687,
 "numbers": [17, 81],
 "pbc": [true, true, true],
 "positions": [[1.9208000000000005, 1.9208000000000003, 1.9208], [0.0, 0.0, 0.0]],
 "unique_id": "8f08c1f5785c7db8f6c4e884dffbdd57",
 "user": "jensj"},
"130": {
 "calculator": "aims",
 "cell": [[5.04386, 0.0, 0.0], [3e-16, 5.04386, 0.0], [3e-16, 3e-16, 5.04386]],
 "ctime": 18.503494184509687,
 "energy": -2272637.17552271,
 "free_energy": -2272637.17284789,
 "initial_magmoms": [0.0, 0.0, 0.0, 0.0],
 "key_value_pairs": {"element": "Pb", "energy2": -2272637.12730733, "ns": 1},
 "mtime": 19.124962098422213,
 "numbers": [82, 82, 82, 82],
 "pbc": [true, true, true],
 "positions": [[0.0, 0.0, 0.0], [3e-16, 2.52193, 2.52193], [2.52193, 2e-16, 2.52193], [2.52193, 2.52193, 0.0]],
 "unique_id": "dd3fe3c33af6163cb6e11eaf9baed80c",
 "user": "jensj"},
"131": {
 "calculator": "aims",
 "cell": [[5.9358, 0.0, 0.0], [4e-16, 5.9358, 0.0], [4e-16, 4e-16, 5.9358]],
 "ctime": 18.503494248802188,
 "energy": -2316091.53995727,
 "free_energy": -2316091.5400059,
 "key_value_pairs": {"element": "Pb", "energy2": -2316091.59210081, "ns": 2},
 "mtime": 19.124962099178546,
 "numbers": [16, 16, 16, 16, 82, 82, 82, 82],
 "pbc": [true, true, true],
 "positions": [[2.9679, 2.9679, 2.9679], [2.9679, 0.0, 0.0], [2e-16, 2.9679, 0.0], [2e-16, 2e-16, 2.9679], [0.0, 0.0, 0.0], [4e-16, 2.9679, 2.9679], [2.9679, 2e-16, 2.9679], [2.9679, 2.9679, 0.0]],
 "unique_id": "1164e36ac0ee540a9bc67c1b4343dfa6",
 "user": "jensj"},
"132": {
 "calculator": "aims",
 "cell": [[4.58866, 0.0, 0.0], [-2.294329999999999, 3.9738961293295025, 0.0], [7e-16, 1.3e-15, 12.18223]],
 "ctime": 18.503494166069917,
 "energy": -3514870.76233776,
 "free_energy": -3514870.7638089,
 "initial_magmoms": [0.0, 0.0, 0.0, 0.0, 0.0, 0.0],
 "key_value_pairs": {"element": "Bi", "energy2": -3514870.68635443, "ns": 1},
 "mtime": 19.12496209993037,
 "numbers": [83, 83, 83, 83, 83, 83],
 "pbc": [true, true, true],
 "positions": [[2e-16, 3e-16, 2.8474744402], [6e-16, 1e-15, 9.334755559800001], [2.2943529433000007, 1.3246187967894039, 6.9081771661], [2.2943529433000003, 1.3246187967894034, 1.2132282857], [-2.29432999985e-05, 2.649277332540101, 10.969001714300001], [-2.29432999989e-05, 2.6492773325401, 5.2740528339]],
 "unique_id": "ff5ec7ffdbee4a8022bdcf00b259fa18",
 "user": "jensj"},
"133": {
 "calculator": "aims",
 "cell": [[5.853, 0.0, 0.0], [4e-16, 5.853, 0.0], [4e-16, 4e-16, 5.853]],
 "ctime": 18.503494249712865,
 "energy": -2375873.12971465,
 "free_energy": -2375873.12971466,
 "key_value_pairs": {"element": "Bi", "energy2": -2375872.79563035, "ns": 2},
 "mtime": 19.12496210070101,
 "numbers": [83, 83, 83, 83, 9, 9, 9, 9, 9, 9, 9, 9, 9, 9, 9, 9],
 "pbc": [true, true, true],
 "positions": [[1.3871609999999999, 1.3871609999999999, 1.3871609999999999], [4.465839, 4.465839, 1.3871609999999999], [4.465839, 1.387161, 4.465839], [1.3871610000000003, 4.465839, 4.465839], [4.389749999999999, 4.389749999999999, 4.389749999999999], [1.4632500000000002, 1.4632500000000002, 4.389749999999999], [1.4632500000000002, 4.389749999999999, 1.46325], [4.389749999999999, 1.46325, 1.46325], [2.9265, 0.0, 0.0], [2e-16, 2.9265, 0.0], [2e-16, 2e-16, 2.9265], [4e-16, 2.9265, 2.9265], [2.9265, 2e-16, 2.9265], [2.9265, 2.9265, 0.0], [2.9265, 2.9265, 2.9265], [0.0, 0.0, 0.0]],
 "unique_id": "ac045bd8496a16e4ae3e9587406fbc45",
 "user": "jensj"},
"134": {
 "calculator": "aims",
 "cell": [[3.34818, 0.0, 0.0], [2e-16, 3.34818, 0.0], [2e-16, 2e-16, 3.34818]],
 "ctime": 18.503494186117383,
 "energy": -603818.826841449,
 "free_energy": -603818.827414896,
 "initial_magmoms": [0.0],
 "key_value_pairs": {"element": "Po", "energy2": -603818.816242831, "ns": 1},
 "mtime": 19.124962101481525,
 "numbers": [84],
 "pbc": [true, true, true],
 "positions": [[0.0, 0.0, 0.0]],
 "unique_id": "2e8274987d07311fe8d99abd295d0181",
 "user": "jensj"},
"135": {
 "calculator": "aims",
 "cell": [[5.56, 0.0, 0.0], [3e-16, 5.56, 0.0], [3e-16, 3e-16, 5.56]],
 "ctime": 18.503494250491688,
 "energy": -2431654.0893015,
 "free_energy": -2431654.08930505,
 "key_value_pairs": {"element": "Po", "energy2": -2431653.69804289, "ns": 2},
 "mtime": 19.124962102330258,
 "numbers": [8, 8, 8, 8, 8, 8, 8, 8, 84, 84, 84, 84],
 "pbc": [true, true, true],
 "positions": [[1.39, 1.39, 1.39], [4.17, 4.17, 1.39], [4.17, 1.3900000000000001, 4.17], [1.3900000000000003, 4.17, 4.17], [1.3900000000000001, 1.3900000000000001, 4.17], [4.17, 4.17, 4.17], [1.3900000000000001, 4.17, 1.39], [4.17, 1.39, 1.39], [0.0, 0.0, 0.0], [3e-16, 2.78, 2.78], [2.78, 2e-16, 2.78], [2.78, 2.78, 0.0]],
 "unique_id": "3b04132801adb15942a563e7d5dc401e",
 "user": "jensj"},
"136": {
 "calculator": "aims",
 "cell": [[7.19417, 0.0, 0.0], [4e-16, 7.19417, 0.0], [4e-16, 4e-16, 7.19417]],
 "ctime": 18.503494188872104,
 "energy": -2563676.06169083,
 "free_energy": -2563676.06169083,
 "initial_magmoms": [0.0, 0.0, 0.0, 0.0],
 "key_value_pairs": {"element": "Rn", "energy2": -2563676.05989578, "ns": 1},
 "mtime": 19.124962103081536,
 "numbers": [86, 86, 86, 86],
 "pbc": [true, true, true],
 "positions": [[0.0, 0.0, 0.0], [4e-16, 3.597085, 3.597085], [3.597085, 2e-16, 3.597085], [3.597085, 3.597085, 0.0]],
 "unique_id": "ab7e6106dae803dffb50a39baeaf5403",
 "user": "jensj"},
"ids": [1, 2, 3, 4, 5, 6, 7, 8, 9, 10, 11, 12, 13, 14, 15, 16, 17, 18, 19, 20, 21, 22, 23, 24, 25, 26, 27, 28, 29, 30, 31, 32, 33, 34, 35, 36, 37, 38, 39, 40, 41, 42, 43, 44, 45, 46, 47, 48, 49, 50, 51, 52, 53, 54, 55, 56, 57, 58, 59, 60, 61, 62, 63, 64, 65, 66, 67, 68, 69, 70, 71, 72, 73, 74, 75, 76, 77, 78, 79, 80, 81, 82, 83, 84, 85, 86, 87, 88, 89, 90, 91, 92, 93, 94, 95, 96, 97, 98, 99, 100, 101, 102, 103, 104, 105, 106, 107, 108, 109, 110, 111, 112, 113, 114, 115, 116, 117, 118, 119, 120, 121, 122, 123, 124, 125, 126, 127, 128, 129, 130, 131, 132, 133, 134, 135, 136],
"nextid": 137}
